[{"page":1,"pages":2,"per_page":50,"total":64,"sourceid":"2","lastupdated":"2024-11-13"},[{"indicator":{"id":"EG.FEC.RNEW.ZS","value":"Renewable energy consumption (% of total final energy consumption)"},"country":{"id":"PH","value":"Philippines"},"countryiso3code":"PHL","date":"2023","value":null,"unit":"","obs_status":"","decimal":2},{"indicator":{"id":"EG.FEC.RNEW.ZS","value":"Renewable energy consumption (% of total final energy consumption)"},"country":{"id":"PH","value":"Philippines"},"countryiso3code":"PHL","date":"2022","value":null,"unit":"","obs_status":"","decimal":2},{"indicator":{"id":"EG.FEC.RNEW.ZS","value":"Renewable energy consumption (% of total final energy consumption)"},"country":{"id":"PH","value":"Philippines"},"countryiso3code":"PHL","date":"2021","value":28,"unit":"","obs_status":"","decimal":2},{"indicator":{"id":"EG.FEC.RNEW.ZS","value":"Renewable energy consumption (% of total final energy consumption)"},"country":{"id":"PH","value":"Philippines"},"countryiso3code":"PHL","date":"2020","value":29.1,"unit":"","obs_status":"","decimal":2},{"indicator":{"id":"EG.FEC.RNEW.ZS","value":"Renewable energy consumption (% of total final energy consumption)"},"country":{"id":"PH","value":"Philippines"},"countryiso3code":"PHL","date":"2019","value":26.9,"unit":"","obs_status":"","decimal":2},{"indicator":{"id":"EG.FEC.RNEW.ZS","value":"Renewable energy consumption (% of total final energy consumption)"},"country":{"id":"PH","value":"Philippines"},"countryiso3code":"PHL","date":"2018","value":27.6,"unit":"","obs_status":"","decimal":2},{"indicator":{"id":"EG.FEC.RNEW.ZS","value":"Renewable energy consumption (% of total final energy consumption)"},"country":{"id":"PH","value":"Philippines"},"countryiso3code":"PHL","date":"2017","value":27.8,"unit":"","obs_status":"","decimal":2},{"indicator":{"id":"EG.FEC.RNEW.ZS","value":"Renewable energy consumption (% of total final energy consumption)"},"country":{"id":"PH","value":"Philippines"},"countryiso3code":"PHL","date":"2016","value":28.6,"unit":"","obs_status":"","decimal":2},{"indicator":{"id":"EG.FEC.RNEW.ZS","value":"Renewable energy consumption (% of total final energy consumption)"},"country":{"id":"PH","value":"Philippines"},"countryiso3code":"PHL","date":"2015","value":30.8,"unit":"","obs_status":"","decimal":2},{"indicator":{"id":"EG.FEC.RNEW.ZS","value":"Renewable energy consumption (% of total final energy consumption)"},"country":{"id":"PH","value":"Philippines"},"countryiso3code":"PHL","date":"2014","value":32.4,"unit":"","obs_status":"","decimal":2},{"indicator":{"id":"EG.FEC.RNEW.ZS","value":"Renewable energy consumption (% of total final energy consumption)"},"country":{"id":"PH","value":"Philippines"},"countryiso3code":"PHL","date":"2013","value":33.1,"unit":"","obs_status":"","decimal":2},{"indicator":{"id":"EG.FEC.RNEW.ZS","value":"Renewable energy consumption (% of total final energy consumption)"},"country":{"id":"PH","value":"Philippines"},"countryiso3code":"PHL","date":"2012","value":34.1,"unit":"","obs_status":"","decimal":2},{"indicator":{"id":"EG.FEC.RNEW.ZS","value":"Renewable energy consumption (% of total final energy consumption)"},"country":{"id":"PH","value":"Philippines"},"countryiso3code":"PHL","date":"2011","value":33.8,"unit":"","obs_status":"","decimal":2},{"indicator":{"id":"EG.FEC.RNEW.ZS","value":"Renewable energy consumption (% of total final energy consumption)"},"country":{"id":"PH","value":"Philippines"},"countryiso3code":"PHL","date":"2010","value":32.7,"unit":"","obs_status":"","decimal":2},{"indicator":{"id":"EG.FEC.RNEW.ZS","value":"Renewable energy consumption (% of total final energy consumption)"},"country":{"id":"PH","value":"Philippines"},"countryiso3code":"PHL","date":"2009","value":34.1,"unit":"","obs_status":"","decimal":2},{"indicator":{"id":"EG.FEC.RNEW.ZS","value":"Renewable energy consumption (% of total final energy consumption)"},"country":{"id":"PH","value":"Philippines"},"countryiso3code":"PHL","date":"2008","value":33.9,"unit":"","obs_status":"","decimal":2},{"indicator":{"id":"EG.FEC.RNEW.ZS","value":"Renewable energy consumption (% of total final energy consumption)"},"country":{"id":"PH","value":"Philippines"},"countryiso3code":"PHL","date":"2007","value":32.4,"unit":"","obs_status":"","decimal":2},{"indicator":{"id":"EG.FEC.RNEW.ZS","value":"Renewable energy consumption (% of total final energy consumption)"},"country":{"id":"PH","value":"Philippines"},"countryiso3code":"PHL","date":"2006","value":33.3,"unit":"","obs_status":"","decimal":2},{"indicator":{"id":"EG.FEC.RNEW.ZS","value":"Renewable energy consumption (% of total final energy consumption)"},"country":{"id":"PH","value":"Philippines"},"countryiso3code":"PHL","date":"2005","value":31.3,"unit":"","obs_status":"","decimal":2},{"indicator":{"id":"EG.FEC.RNEW.ZS","value":"Renewable energy consumption (% of total final energy consumption)"},"country":{"id":"PH","value":"Philippines"},"countryiso3code":"PHL","date":"2004","value":30.2,"unit":"","obs_status":"","decimal":2},{"indicator":{"id":"EG.FEC.RNEW.ZS","value":"Renewable energy consumption (% of total final energy consumption)"},"country":{"id":"PH","value":"Philippines"},"countryiso3code":"PHL","date":"2003","value":30.9,"unit":"","obs_status":"","decimal":2},{"indicator":{"id":"EG.FEC.RNEW.ZS","value":"Renewable energy consumption (% of total final energy consumption)"},"country":{"id":"PH","value":"Philippines"},"countryiso3code":"PHL","date":"2002","value":31.8,"unit":"","obs_status":"","decimal":2},{"indicator":{"id":"EG.FEC.RNEW.ZS","value":"Renewable energy consumption (% of total final energy consumption)"},"country":{"id":"PH","value":"Philippines"},"countryiso3code":"PHL","date":"2001","value":32.9,"unit":"","obs_status":"","decimal":2},{"indicator":{"id":"EG.FEC.RNEW.ZS","value":"Renewable energy consumption (% of total final energy consumption)"},"country":{"id":"PH","value":"Philippines"},"countryiso3code":"PHL","date":"2000","value":33.9,"unit":"","obs_status":"","decimal":2},{"indicator":{"id":"EG.FEC.RNEW.ZS","value":"Renewable energy consumption (% of total final energy consumption)"},"country":{"id":"PH","value":"Philippines"},"countryiso3code":"PHL","date":"1999","value":33.6,"unit":"","obs_status":"","decimal":2},{"indicator":{"id":"EG.FEC.RNEW.ZS","value":"Renewable energy consumption (% of total final energy consumption)"},"country":{"id":"PH","value":"Philippines"},"countryiso3code":"PHL","date":"1998","value":32.8,"unit":"","obs_status":"","decimal":2},{"indicator":{"id":"EG.FEC.RNEW.ZS","value":"Renewable energy consumption (% of total final energy consumption)"},"country":{"id":"PH","value":"Philippines"},"countryiso3code":"PHL","date":"1997","value":33.4,"unit":"","obs_status":"","decimal":2},{"indicator":{"id":"EG.FEC.RNEW.ZS","value":"Renewable energy consumption (% of total final energy consumption)"},"country":{"id":"PH","value":"Philippines"},"countryiso3code":"PHL","date":"1996","value":35.8,"unit":"","obs_status":"","decimal":2},{"indicator":{"id":"EG.FEC.RNEW.ZS","value":"Renewable energy consumption (% of total final energy consumption)"},"country":{"id":"PH","value":"Philippines"},"countryiso3code":"PHL","date":"1995","value":37.8,"unit":"","obs_status":"","decimal":2},{"indicator":{"id":"EG.FEC.RNEW.ZS","value":"Renewable energy consumption (% of total final energy consumption)"},"country":{"id":"PH","value":"Philippines"},"countryiso3code":"PHL","date":"1994","value":43.1,"unit":"","obs_status":"","decimal":2},{"indicator":{"id":"EG.FEC.RNEW.ZS","value":"Renewable energy consumption (% of total final energy consumption)"},"country":{"id":"PH","value":"Philippines"},"countryiso3code":"PHL","date":"1993","value":44.1,"unit":"","obs_status":"","decimal":2},{"indicator":{"id":"EG.FEC.RNEW.ZS","value":"Renewable energy consumption (% of total final energy consumption)"},"country":{"id":"PH","value":"Philippines"},"countryiso3code":"PHL","date":"1992","value":47.7,"unit":"","obs_status":"","decimal":2},{"indicator":{"id":"EG.FEC.RNEW.ZS","value":"Renewable energy consumption (% of total final energy consumption)"},"country":{"id":"PH","value":"Philippines"},"countryiso3code":"PHL","date":"1991","value":51.3,"unit":"","obs_status":"","decimal":2},{"indicator":{"id":"EG.FEC.RNEW.ZS","value":"Renewable energy consumption (% of total final energy consumption)"},"country":{"id":"PH","value":"Philippines"},"countryiso3code":"PHL","date":"1990","value":49.5,"unit":"","obs_status":"","decimal":2},{"indicator":{"id":"EG.FEC.RNEW.ZS","value":"Renewable energy consumption (% of total final energy consumption)"},"country":{"id":"PH","value":"Philippines"},"countryiso3code":"PHL","date":"1989","value":null,"unit":"","obs_status":"","decimal":2},{"indicator":{"id":"EG.FEC.RNEW.ZS","value":"Renewable energy consumption (% of total final energy consumption)"},"country":{"id":"PH","value":"Philippines"},"countryiso3code":"PHL","date":"1988","value":null,"unit":"","obs_status":"","decimal":2},{"indicator":{"id":"EG.FEC.RNEW.ZS","value":"Renewable energy consumption (% of total final energy consumption)"},"country":{"id":"PH","value":"Philippines"},"countryiso3code":"PHL","date":"1987","value":null,"unit":"","obs_status":"","decimal":2},{"indicator":{"id":"EG.FEC.RNEW.ZS","value":"Renewable energy consumption (% of total final energy consumption)"},"country":{"id":"PH","value":"Philippines"},"countryiso3code":"PHL","date":"1986","value":null,"unit":"","obs_status":"","decimal":2},{"indicator":{"id":"EG.FEC.RNEW.ZS","value":"Renewable energy consumption (% of total final energy consumption)"},"country":{"id":"PH","value":"Philippines"},"countryiso3code":"PHL","date":"1985","value":null,"unit":"","obs_status":"","decimal":2},{"indicator":{"id":"EG.FEC.RNEW.ZS","value":"Renewable energy consumption (% of total final energy consumption)"},"country":{"id":"PH","value":"Philippines"},"countryiso3code":"PHL","date":"1984","value":null,"unit":"","obs_status":"","decimal":2},{"indicator":{"id":"EG.FEC.RNEW.ZS","value":"Renewable energy consumption (% of total final energy consumption)"},"country":{"id":"PH","value":"Philippines"},"countryiso3code":"PHL","date":"1983","value":null,"unit":"","obs_status":"","decimal":2},{"indicator":{"id":"EG.FEC.RNEW.ZS","value":"Renewable energy consumption (% of total final energy consumption)"},"country":{"id":"PH","value":"Philippines"},"countryiso3code":"PHL","date":"1982","value":null,"unit":"","obs_status":"","decimal":2},{"indicator":{"id":"EG.FEC.RNEW.ZS","value":"Renewable energy consumption (% of total final energy consumption)"},"country":{"id":"PH","value":"Philippines"},"countryiso3code":"PHL","date":"1981","value":null,"unit":"","obs_status":"","decimal":2},{"indicator":{"id":"EG.FEC.RNEW.ZS","value":"Renewable energy consumption (% of total final energy consumption)"},"country":{"id":"PH","value":"Philippines"},"countryiso3code":"PHL","date":"1980","value":null,"unit":"","obs_status":"","decimal":2},{"indicator":{"id":"EG.FEC.RNEW.ZS","value":"Renewable energy consumption (% of total final energy consumption)"},"country":{"id":"PH","value":"Philippines"},"countryiso3code":"PHL","date":"1979","value":null,"unit":"","obs_status":"","decimal":2},{"indicator":{"id":"EG.FEC.RNEW.ZS","value":"Renewable energy consumption (% of total final energy consumption)"},"country":{"id":"PH","value":"Philippines"},"countryiso3code":"PHL","date":"1978","value":null,"unit":"","obs_status":"","decimal":2},{"indicator":{"id":"EG.FEC.RNEW.ZS","value":"Renewable energy consumption (% of total final energy consumption)"},"country":{"id":"PH","value":"Philippines"},"countryiso3code":"PHL","date":"1977","value":null,"unit":"","obs_status":"","decimal":2},{"indicator":{"id":"EG.FEC.RNEW.ZS","value":"Renewable energy consumption (% of total final energy consumption)"},"country":{"id":"PH","value":"Philippines"},"countryiso3code":"PHL","date":"1976","value":null,"unit":"","obs_status":"","decimal":2},{"indicator":{"id":"EG.FEC.RNEW.ZS","value":"Renewable energy consumption (% of total final energy consumption)"},"country":{"id":"PH","value":"Philippines"},"countryiso3code":"PHL","date":"1975","value":null,"unit":"","obs_status":"","decimal":2},{"indicator":{"id":"EG.FEC.RNEW.ZS","value":"Renewable energy consumption (% of total final energy consumption)"},"country":{"id":"PH","value":"Philippines"},"countryiso3code":"PHL","date":"1974","value":null,"unit":"","obs_status":"","decimal":2}]]