[{"page":1,"pages":2,"per_page":50,"total":64,"sourceid":"2","lastupdated":"2024-10-24"},[{"indicator":{"id":"FP.CPI.TOTL","value":"Consumer price index (2010 = 100)"},"country":{"id":"PH","value":"Philippines"},"countryiso3code":"PHL","date":"2023","value":154.691744685736,"unit":"","obs_status":"","decimal":1},{"indicator":{"id":"FP.CPI.TOTL","value":"Consumer price index (2010 = 100)"},"country":{"id":"PH","value":"Philippines"},"countryiso3code":"PHL","date":"2022","value":145.965868357034,"unit":"","obs_status":"","decimal":1},{"indicator":{"id":"FP.CPI.TOTL","value":"Consumer price index (2010 = 100)"},"country":{"id":"PH","value":"Philippines"},"countryiso3code":"PHL","date":"2021","value":137.936373936063,"unit":"","obs_status":"","decimal":1},{"indicator":{"id":"FP.CPI.TOTL","value":"Consumer price index (2010 = 100)"},"country":{"id":"PH","value":"Philippines"},"countryiso3code":"PHL","date":"2020","value":132.7240608691,"unit":"","obs_status":"","decimal":1},{"indicator":{"id":"FP.CPI.TOTL","value":"Consumer price index (2010 = 100)"},"country":{"id":"PH","value":"Philippines"},"countryiso3code":"PHL","date":"2019","value":129.621996007385,"unit":"","obs_status":"","decimal":1},{"indicator":{"id":"FP.CPI.TOTL","value":"Consumer price index (2010 = 100)"},"country":{"id":"PH","value":"Philippines"},"countryiso3code":"PHL","date":"2018","value":126.593789832853,"unit":"","obs_status":"","decimal":1},{"indicator":{"id":"FP.CPI.TOTL","value":"Consumer price index (2010 = 100)"},"country":{"id":"PH","value":"Philippines"},"countryiso3code":"PHL","date":"2017","value":120.211352458706,"unit":"","obs_status":"","decimal":1},{"indicator":{"id":"FP.CPI.TOTL","value":"Consumer price index (2010 = 100)"},"country":{"id":"PH","value":"Philippines"},"countryiso3code":"PHL","date":"2016","value":116.876642442093,"unit":"","obs_status":"","decimal":1},{"indicator":{"id":"FP.CPI.TOTL","value":"Consumer price index (2010 = 100)"},"country":{"id":"PH","value":"Philippines"},"countryiso3code":"PHL","date":"2015","value":115.429504132997,"unit":"","obs_status":"","decimal":1},{"indicator":{"id":"FP.CPI.TOTL","value":"Consumer price index (2010 = 100)"},"country":{"id":"PH","value":"Philippines"},"countryiso3code":"PHL","date":"2014","value":114.656498576585,"unit":"","obs_status":"","decimal":1},{"indicator":{"id":"FP.CPI.TOTL","value":"Consumer price index (2010 = 100)"},"country":{"id":"PH","value":"Philippines"},"countryiso3code":"PHL","date":"2013","value":110.674621117395,"unit":"","obs_status":"","decimal":1},{"indicator":{"id":"FP.CPI.TOTL","value":"Consumer price index (2010 = 100)"},"country":{"id":"PH","value":"Philippines"},"countryiso3code":"PHL","date":"2012","value":107.888205739633,"unit":"","obs_status":"","decimal":1},{"indicator":{"id":"FP.CPI.TOTL","value":"Consumer price index (2010 = 100)"},"country":{"id":"PH","value":"Philippines"},"countryiso3code":"PHL","date":"2011","value":104.718417047184,"unit":"","obs_status":"","decimal":1},{"indicator":{"id":"FP.CPI.TOTL","value":"Consumer price index (2010 = 100)"},"country":{"id":"PH","value":"Philippines"},"countryiso3code":"PHL","date":"2010","value":100,"unit":"","obs_status":"","decimal":1},{"indicator":{"id":"FP.CPI.TOTL","value":"Consumer price index (2010 = 100)"},"country":{"id":"PH","value":"Philippines"},"countryiso3code":"PHL","date":"2009","value":96.3485477178423,"unit":"","obs_status":"","decimal":1},{"indicator":{"id":"FP.CPI.TOTL","value":"Consumer price index (2010 = 100)"},"country":{"id":"PH","value":"Philippines"},"countryiso3code":"PHL","date":"2008","value":92.448132780083,"unit":"","obs_status":"","decimal":1},{"indicator":{"id":"FP.CPI.TOTL","value":"Consumer price index (2010 = 100)"},"country":{"id":"PH","value":"Philippines"},"countryiso3code":"PHL","date":"2007","value":85.3941908713693,"unit":"","obs_status":"","decimal":1},{"indicator":{"id":"FP.CPI.TOTL","value":"Consumer price index (2010 = 100)"},"country":{"id":"PH","value":"Philippines"},"countryiso3code":"PHL","date":"2006","value":82.9875518672199,"unit":"","obs_status":"","decimal":1},{"indicator":{"id":"FP.CPI.TOTL","value":"Consumer price index (2010 = 100)"},"country":{"id":"PH","value":"Philippines"},"countryiso3code":"PHL","date":"2005","value":78.6721991701245,"unit":"","obs_status":"","decimal":1},{"indicator":{"id":"FP.CPI.TOTL","value":"Consumer price index (2010 = 100)"},"country":{"id":"PH","value":"Philippines"},"countryiso3code":"PHL","date":"2004","value":73.8589211618257,"unit":"","obs_status":"","decimal":1},{"indicator":{"id":"FP.CPI.TOTL","value":"Consumer price index (2010 = 100)"},"country":{"id":"PH","value":"Philippines"},"countryiso3code":"PHL","date":"2003","value":70.4564315352697,"unit":"","obs_status":"","decimal":1},{"indicator":{"id":"FP.CPI.TOTL","value":"Consumer price index (2010 = 100)"},"country":{"id":"PH","value":"Philippines"},"countryiso3code":"PHL","date":"2002","value":68.8796680497925,"unit":"","obs_status":"","decimal":1},{"indicator":{"id":"FP.CPI.TOTL","value":"Consumer price index (2010 = 100)"},"country":{"id":"PH","value":"Philippines"},"countryiso3code":"PHL","date":"2001","value":67.0539419087137,"unit":"","obs_status":"","decimal":1},{"indicator":{"id":"FP.CPI.TOTL","value":"Consumer price index (2010 = 100)"},"country":{"id":"PH","value":"Philippines"},"countryiso3code":"PHL","date":"2000","value":63.6514522821577,"unit":"","obs_status":"","decimal":1},{"indicator":{"id":"FP.CPI.TOTL","value":"Consumer price index (2010 = 100)"},"country":{"id":"PH","value":"Philippines"},"countryiso3code":"PHL","date":"1999","value":61.2167842323652,"unit":"","obs_status":"","decimal":1},{"indicator":{"id":"FP.CPI.TOTL","value":"Consumer price index (2010 = 100)"},"country":{"id":"PH","value":"Philippines"},"countryiso3code":"PHL","date":"1998","value":57.7849100968188,"unit":"","obs_status":"","decimal":1},{"indicator":{"id":"FP.CPI.TOTL","value":"Consumer price index (2010 = 100)"},"country":{"id":"PH","value":"Philippines"},"countryiso3code":"PHL","date":"1997","value":52.8996611341632,"unit":"","obs_status":"","decimal":1},{"indicator":{"id":"FP.CPI.TOTL","value":"Consumer price index (2010 = 100)"},"country":{"id":"PH","value":"Philippines"},"countryiso3code":"PHL","date":"1996","value":50.0989972337483,"unit":"","obs_status":"","decimal":1},{"indicator":{"id":"FP.CPI.TOTL","value":"Consumer price index (2010 = 100)"},"country":{"id":"PH","value":"Philippines"},"countryiso3code":"PHL","date":"1995","value":46.6140802213001,"unit":"","obs_status":"","decimal":1},{"indicator":{"id":"FP.CPI.TOTL","value":"Consumer price index (2010 = 100)"},"country":{"id":"PH","value":"Philippines"},"countryiso3code":"PHL","date":"1994","value":43.6330705394191,"unit":"","obs_status":"","decimal":1},{"indicator":{"id":"FP.CPI.TOTL","value":"Consumer price index (2010 = 100)"},"country":{"id":"PH","value":"Philippines"},"countryiso3code":"PHL","date":"1993","value":39.5275518672199,"unit":"","obs_status":"","decimal":1},{"indicator":{"id":"FP.CPI.TOTL","value":"Consumer price index (2010 = 100)"},"country":{"id":"PH","value":"Philippines"},"countryiso3code":"PHL","date":"1992","value":37.0398409405256,"unit":"","obs_status":"","decimal":1},{"indicator":{"id":"FP.CPI.TOTL","value":"Consumer price index (2010 = 100)"},"country":{"id":"PH","value":"Philippines"},"countryiso3code":"PHL","date":"1991","value":34.0906569847856,"unit":"","obs_status":"","decimal":1},{"indicator":{"id":"FP.CPI.TOTL","value":"Consumer price index (2010 = 100)"},"country":{"id":"PH","value":"Philippines"},"countryiso3code":"PHL","date":"1990","value":28.584806362379,"unit":"","obs_status":"","decimal":1},{"indicator":{"id":"FP.CPI.TOTL","value":"Consumer price index (2010 = 100)"},"country":{"id":"PH","value":"Philippines"},"countryiso3code":"PHL","date":"1989","value":25.4817980636238,"unit":"","obs_status":"","decimal":1},{"indicator":{"id":"FP.CPI.TOTL","value":"Consumer price index (2010 = 100)"},"country":{"id":"PH","value":"Philippines"},"countryiso3code":"PHL","date":"1988","value":22.7023513139696,"unit":"","obs_status":"","decimal":1},{"indicator":{"id":"FP.CPI.TOTL","value":"Consumer price index (2010 = 100)"},"country":{"id":"PH","value":"Philippines"},"countryiso3code":"PHL","date":"1987","value":19.9388174273859,"unit":"","obs_status":"","decimal":1},{"indicator":{"id":"FP.CPI.TOTL","value":"Consumer price index (2010 = 100)"},"country":{"id":"PH","value":"Philippines"},"countryiso3code":"PHL","date":"1986","value":19.1590871369295,"unit":"","obs_status":"","decimal":1},{"indicator":{"id":"FP.CPI.TOTL","value":"Consumer price index (2010 = 100)"},"country":{"id":"PH","value":"Philippines"},"countryiso3code":"PHL","date":"1985","value":18.9416113416321,"unit":"","obs_status":"","decimal":1},{"indicator":{"id":"FP.CPI.TOTL","value":"Consumer price index (2010 = 100)"},"country":{"id":"PH","value":"Philippines"},"countryiso3code":"PHL","date":"1984","value":15.3867857404087,"unit":"","obs_status":"","decimal":1},{"indicator":{"id":"FP.CPI.TOTL","value":"Consumer price index (2010 = 100)"},"country":{"id":"PH","value":"Philippines"},"countryiso3code":"PHL","date":"1983","value":10.2347283365258,"unit":"","obs_status":"","decimal":1},{"indicator":{"id":"FP.CPI.TOTL","value":"Consumer price index (2010 = 100)"},"country":{"id":"PH","value":"Philippines"},"countryiso3code":"PHL","date":"1982","value":9.30181603920786,"unit":"","obs_status":"","decimal":1},{"indicator":{"id":"FP.CPI.TOTL","value":"Consumer price index (2010 = 100)"},"country":{"id":"PH","value":"Philippines"},"countryiso3code":"PHL","date":"1981","value":8.43918552245876,"unit":"","obs_status":"","decimal":1},{"indicator":{"id":"FP.CPI.TOTL","value":"Consumer price index (2010 = 100)"},"country":{"id":"PH","value":"Philippines"},"countryiso3code":"PHL","date":"1980","value":7.46285072380537,"unit":"","obs_status":"","decimal":1},{"indicator":{"id":"FP.CPI.TOTL","value":"Consumer price index (2010 = 100)"},"country":{"id":"PH","value":"Philippines"},"countryiso3code":"PHL","date":"1979","value":6.31372122897355,"unit":"","obs_status":"","decimal":1},{"indicator":{"id":"FP.CPI.TOTL","value":"Consumer price index (2010 = 100)"},"country":{"id":"PH","value":"Philippines"},"countryiso3code":"PHL","date":"1978","value":5.37185583863149,"unit":"","obs_status":"","decimal":1},{"indicator":{"id":"FP.CPI.TOTL","value":"Consumer price index (2010 = 100)"},"country":{"id":"PH","value":"Philippines"},"countryiso3code":"PHL","date":"1977","value":5.00477902299168,"unit":"","obs_status":"","decimal":1},{"indicator":{"id":"FP.CPI.TOTL","value":"Consumer price index (2010 = 100)"},"country":{"id":"PH","value":"Philippines"},"countryiso3code":"PHL","date":"1976","value":4.55399078719985,"unit":"","obs_status":"","decimal":1},{"indicator":{"id":"FP.CPI.TOTL","value":"Consumer price index (2010 = 100)"},"country":{"id":"PH","value":"Philippines"},"countryiso3code":"PHL","date":"1975","value":4.17035074939091,"unit":"","obs_status":"","decimal":1},{"indicator":{"id":"FP.CPI.TOTL","value":"Consumer price index (2010 = 100)"},"country":{"id":"PH","value":"Philippines"},"countryiso3code":"PHL","date":"1974","value":3.90623450399154,"unit":"","obs_status":"","decimal":1}]]