[{"page":1,"pages":2,"per_page":50,"total":64,"sourceid":"2","lastupdated":"2024-11-13"},[{"indicator":{"id":"IT.NET.USER.ZS","value":"Individuals using the Internet (% of population)"},"country":{"id":"PH","value":"Philippines"},"countryiso3code":"PHL","date":"2023","value":null,"unit":"","obs_status":"","decimal":0},{"indicator":{"id":"IT.NET.USER.ZS","value":"Individuals using the Internet (% of population)"},"country":{"id":"PH","value":"Philippines"},"countryiso3code":"PHL","date":"2022","value":75.2111,"unit":"","obs_status":"","decimal":0},{"indicator":{"id":"IT.NET.USER.ZS","value":"Individuals using the Internet (% of population)"},"country":{"id":"PH","value":"Philippines"},"countryiso3code":"PHL","date":"2021","value":63.4019,"unit":"","obs_status":"","decimal":0},{"indicator":{"id":"IT.NET.USER.ZS","value":"Individuals using the Internet (% of population)"},"country":{"id":"PH","value":"Philippines"},"countryiso3code":"PHL","date":"2020","value":53.7649,"unit":"","obs_status":"","decimal":0},{"indicator":{"id":"IT.NET.USER.ZS","value":"Individuals using the Internet (% of population)"},"country":{"id":"PH","value":"Philippines"},"countryiso3code":"PHL","date":"2019","value":43.0266,"unit":"","obs_status":"","decimal":0},{"indicator":{"id":"IT.NET.USER.ZS","value":"Individuals using the Internet (% of population)"},"country":{"id":"PH","value":"Philippines"},"countryiso3code":"PHL","date":"2018","value":44.1,"unit":"","obs_status":"","decimal":0},{"indicator":{"id":"IT.NET.USER.ZS","value":"Individuals using the Internet (% of population)"},"country":{"id":"PH","value":"Philippines"},"countryiso3code":"PHL","date":"2017","value":41.6,"unit":"","obs_status":"","decimal":0},{"indicator":{"id":"IT.NET.USER.ZS","value":"Individuals using the Internet (% of population)"},"country":{"id":"PH","value":"Philippines"},"countryiso3code":"PHL","date":"2016","value":39.2,"unit":"","obs_status":"","decimal":0},{"indicator":{"id":"IT.NET.USER.ZS","value":"Individuals using the Internet (% of population)"},"country":{"id":"PH","value":"Philippines"},"countryiso3code":"PHL","date":"2015","value":36.9,"unit":"","obs_status":"","decimal":0},{"indicator":{"id":"IT.NET.USER.ZS","value":"Individuals using the Internet (% of population)"},"country":{"id":"PH","value":"Philippines"},"countryiso3code":"PHL","date":"2014","value":34.7,"unit":"","obs_status":"","decimal":0},{"indicator":{"id":"IT.NET.USER.ZS","value":"Individuals using the Internet (% of population)"},"country":{"id":"PH","value":"Philippines"},"countryiso3code":"PHL","date":"2013","value":32.7,"unit":"","obs_status":"","decimal":0},{"indicator":{"id":"IT.NET.USER.ZS","value":"Individuals using the Internet (% of population)"},"country":{"id":"PH","value":"Philippines"},"countryiso3code":"PHL","date":"2012","value":30.8,"unit":"","obs_status":"","decimal":0},{"indicator":{"id":"IT.NET.USER.ZS","value":"Individuals using the Internet (% of population)"},"country":{"id":"PH","value":"Philippines"},"countryiso3code":"PHL","date":"2011","value":29,"unit":"","obs_status":"","decimal":0},{"indicator":{"id":"IT.NET.USER.ZS","value":"Individuals using the Internet (% of population)"},"country":{"id":"PH","value":"Philippines"},"countryiso3code":"PHL","date":"2010","value":25,"unit":"","obs_status":"","decimal":0},{"indicator":{"id":"IT.NET.USER.ZS","value":"Individuals using the Internet (% of population)"},"country":{"id":"PH","value":"Philippines"},"countryiso3code":"PHL","date":"2009","value":9,"unit":"","obs_status":"","decimal":0},{"indicator":{"id":"IT.NET.USER.ZS","value":"Individuals using the Internet (% of population)"},"country":{"id":"PH","value":"Philippines"},"countryiso3code":"PHL","date":"2008","value":6.22,"unit":"","obs_status":"","decimal":0},{"indicator":{"id":"IT.NET.USER.ZS","value":"Individuals using the Internet (% of population)"},"country":{"id":"PH","value":"Philippines"},"countryiso3code":"PHL","date":"2007","value":5.97,"unit":"","obs_status":"","decimal":0},{"indicator":{"id":"IT.NET.USER.ZS","value":"Individuals using the Internet (% of population)"},"country":{"id":"PH","value":"Philippines"},"countryiso3code":"PHL","date":"2006","value":5.74059,"unit":"","obs_status":"","decimal":0},{"indicator":{"id":"IT.NET.USER.ZS","value":"Individuals using the Internet (% of population)"},"country":{"id":"PH","value":"Philippines"},"countryiso3code":"PHL","date":"2005","value":5.39764,"unit":"","obs_status":"","decimal":0},{"indicator":{"id":"IT.NET.USER.ZS","value":"Individuals using the Internet (% of population)"},"country":{"id":"PH","value":"Philippines"},"countryiso3code":"PHL","date":"2004","value":5.24363,"unit":"","obs_status":"","decimal":0},{"indicator":{"id":"IT.NET.USER.ZS","value":"Individuals using the Internet (% of population)"},"country":{"id":"PH","value":"Philippines"},"countryiso3code":"PHL","date":"2003","value":4.85767,"unit":"","obs_status":"","decimal":0},{"indicator":{"id":"IT.NET.USER.ZS","value":"Individuals using the Internet (% of population)"},"country":{"id":"PH","value":"Philippines"},"countryiso3code":"PHL","date":"2002","value":4.33228,"unit":"","obs_status":"","decimal":0},{"indicator":{"id":"IT.NET.USER.ZS","value":"Individuals using the Internet (% of population)"},"country":{"id":"PH","value":"Philippines"},"countryiso3code":"PHL","date":"2001","value":2.52401,"unit":"","obs_status":"","decimal":0},{"indicator":{"id":"IT.NET.USER.ZS","value":"Individuals using the Internet (% of population)"},"country":{"id":"PH","value":"Philippines"},"countryiso3code":"PHL","date":"2000","value":1.98225,"unit":"","obs_status":"","decimal":0},{"indicator":{"id":"IT.NET.USER.ZS","value":"Individuals using the Internet (% of population)"},"country":{"id":"PH","value":"Philippines"},"countryiso3code":"PHL","date":"1999","value":1.431608803,"unit":"","obs_status":"","decimal":0},{"indicator":{"id":"IT.NET.USER.ZS","value":"Individuals using the Internet (% of population)"},"country":{"id":"PH","value":"Philippines"},"countryiso3code":"PHL","date":"1998","value":1.103405994,"unit":"","obs_status":"","decimal":0},{"indicator":{"id":"IT.NET.USER.ZS","value":"Individuals using the Internet (% of population)"},"country":{"id":"PH","value":"Philippines"},"countryiso3code":"PHL","date":"1997","value":0.136912963,"unit":"","obs_status":"","decimal":0},{"indicator":{"id":"IT.NET.USER.ZS","value":"Individuals using the Internet (% of population)"},"country":{"id":"PH","value":"Philippines"},"countryiso3code":"PHL","date":"1996","value":0.055946029,"unit":"","obs_status":"","decimal":0},{"indicator":{"id":"IT.NET.USER.ZS","value":"Individuals using the Internet (% of population)"},"country":{"id":"PH","value":"Philippines"},"countryiso3code":"PHL","date":"1995","value":0.028585702,"unit":"","obs_status":"","decimal":0},{"indicator":{"id":"IT.NET.USER.ZS","value":"Individuals using the Internet (% of population)"},"country":{"id":"PH","value":"Philippines"},"countryiso3code":"PHL","date":"1994","value":0.005844253,"unit":"","obs_status":"","decimal":0},{"indicator":{"id":"IT.NET.USER.ZS","value":"Individuals using the Internet (% of population)"},"country":{"id":"PH","value":"Philippines"},"countryiso3code":"PHL","date":"1993","value":0,"unit":"","obs_status":"","decimal":0},{"indicator":{"id":"IT.NET.USER.ZS","value":"Individuals using the Internet (% of population)"},"country":{"id":"PH","value":"Philippines"},"countryiso3code":"PHL","date":"1992","value":0,"unit":"","obs_status":"","decimal":0},{"indicator":{"id":"IT.NET.USER.ZS","value":"Individuals using the Internet (% of population)"},"country":{"id":"PH","value":"Philippines"},"countryiso3code":"PHL","date":"1991","value":0,"unit":"","obs_status":"","decimal":0},{"indicator":{"id":"IT.NET.USER.ZS","value":"Individuals using the Internet (% of population)"},"country":{"id":"PH","value":"Philippines"},"countryiso3code":"PHL","date":"1990","value":0,"unit":"","obs_status":"","decimal":0},{"indicator":{"id":"IT.NET.USER.ZS","value":"Individuals using the Internet (% of population)"},"country":{"id":"PH","value":"Philippines"},"countryiso3code":"PHL","date":"1989","value":null,"unit":"","obs_status":"","decimal":0},{"indicator":{"id":"IT.NET.USER.ZS","value":"Individuals using the Internet (% of population)"},"country":{"id":"PH","value":"Philippines"},"countryiso3code":"PHL","date":"1988","value":null,"unit":"","obs_status":"","decimal":0},{"indicator":{"id":"IT.NET.USER.ZS","value":"Individuals using the Internet (% of population)"},"country":{"id":"PH","value":"Philippines"},"countryiso3code":"PHL","date":"1987","value":null,"unit":"","obs_status":"","decimal":0},{"indicator":{"id":"IT.NET.USER.ZS","value":"Individuals using the Internet (% of population)"},"country":{"id":"PH","value":"Philippines"},"countryiso3code":"PHL","date":"1986","value":null,"unit":"","obs_status":"","decimal":0},{"indicator":{"id":"IT.NET.USER.ZS","value":"Individuals using the Internet (% of population)"},"country":{"id":"PH","value":"Philippines"},"countryiso3code":"PHL","date":"1985","value":null,"unit":"","obs_status":"","decimal":0},{"indicator":{"id":"IT.NET.USER.ZS","value":"Individuals using the Internet (% of population)"},"country":{"id":"PH","value":"Philippines"},"countryiso3code":"PHL","date":"1984","value":null,"unit":"","obs_status":"","decimal":0},{"indicator":{"id":"IT.NET.USER.ZS","value":"Individuals using the Internet (% of population)"},"country":{"id":"PH","value":"Philippines"},"countryiso3code":"PHL","date":"1983","value":null,"unit":"","obs_status":"","decimal":0},{"indicator":{"id":"IT.NET.USER.ZS","value":"Individuals using the Internet (% of population)"},"country":{"id":"PH","value":"Philippines"},"countryiso3code":"PHL","date":"1982","value":null,"unit":"","obs_status":"","decimal":0},{"indicator":{"id":"IT.NET.USER.ZS","value":"Individuals using the Internet (% of population)"},"country":{"id":"PH","value":"Philippines"},"countryiso3code":"PHL","date":"1981","value":null,"unit":"","obs_status":"","decimal":0},{"indicator":{"id":"IT.NET.USER.ZS","value":"Individuals using the Internet (% of population)"},"country":{"id":"PH","value":"Philippines"},"countryiso3code":"PHL","date":"1980","value":null,"unit":"","obs_status":"","decimal":0},{"indicator":{"id":"IT.NET.USER.ZS","value":"Individuals using the Internet (% of population)"},"country":{"id":"PH","value":"Philippines"},"countryiso3code":"PHL","date":"1979","value":null,"unit":"","obs_status":"","decimal":0},{"indicator":{"id":"IT.NET.USER.ZS","value":"Individuals using the Internet (% of population)"},"country":{"id":"PH","value":"Philippines"},"countryiso3code":"PHL","date":"1978","value":null,"unit":"","obs_status":"","decimal":0},{"indicator":{"id":"IT.NET.USER.ZS","value":"Individuals using the Internet (% of population)"},"country":{"id":"PH","value":"Philippines"},"countryiso3code":"PHL","date":"1977","value":null,"unit":"","obs_status":"","decimal":0},{"indicator":{"id":"IT.NET.USER.ZS","value":"Individuals using the Internet (% of population)"},"country":{"id":"PH","value":"Philippines"},"countryiso3code":"PHL","date":"1976","value":null,"unit":"","obs_status":"","decimal":0},{"indicator":{"id":"IT.NET.USER.ZS","value":"Individuals using the Internet (% of population)"},"country":{"id":"PH","value":"Philippines"},"countryiso3code":"PHL","date":"1975","value":null,"unit":"","obs_status":"","decimal":0},{"indicator":{"id":"IT.NET.USER.ZS","value":"Individuals using the Internet (% of population)"},"country":{"id":"PH","value":"Philippines"},"countryiso3code":"PHL","date":"1974","value":null,"unit":"","obs_status":"","decimal":0}]]