[{"page":1,"pages":2,"per_page":50,"total":64,"sourceid":"2","lastupdated":"2024-10-24"},[{"indicator":{"id":"NY.GDP.MKTP.CD","value":"GDP (current US$)"},"country":{"id":"PH","value":"Philippines"},"countryiso3code":"PHL","date":"2023","value":437146372729.942,"unit":"","obs_status":"","decimal":0},{"indicator":{"id":"NY.GDP.MKTP.CD","value":"GDP (current US$)"},"country":{"id":"PH","value":"Philippines"},"countryiso3code":"PHL","date":"2022","value":404353369604.631,"unit":"","obs_status":"","decimal":0},{"indicator":{"id":"NY.GDP.MKTP.CD","value":"GDP (current US$)"},"country":{"id":"PH","value":"Philippines"},"countryiso3code":"PHL","date":"2021","value":394087359848.11,"unit":"","obs_status":"","decimal":0},{"indicator":{"id":"NY.GDP.MKTP.CD","value":"GDP (current US$)"},"country":{"id":"PH","value":"Philippines"},"countryiso3code":"PHL","date":"2020","value":361751145451.597,"unit":"","obs_status":"","decimal":0},{"indicator":{"id":"NY.GDP.MKTP.CD","value":"GDP (current US$)"},"country":{"id":"PH","value":"Philippines"},"countryiso3code":"PHL","date":"2019","value":376823402244.928,"unit":"","obs_status":"","decimal":0},{"indicator":{"id":"NY.GDP.MKTP.CD","value":"GDP (current US$)"},"country":{"id":"PH","value":"Philippines"},"countryiso3code":"PHL","date":"2018","value":346841896583.515,"unit":"","obs_status":"","decimal":0},{"indicator":{"id":"NY.GDP.MKTP.CD","value":"GDP (current US$)"},"country":{"id":"PH","value":"Philippines"},"countryiso3code":"PHL","date":"2017","value":328480736798.792,"unit":"","obs_status":"","decimal":0},{"indicator":{"id":"NY.GDP.MKTP.CD","value":"GDP (current US$)"},"country":{"id":"PH","value":"Philippines"},"countryiso3code":"PHL","date":"2016","value":318627003012.52,"unit":"","obs_status":"","decimal":0},{"indicator":{"id":"NY.GDP.MKTP.CD","value":"GDP (current US$)"},"country":{"id":"PH","value":"Philippines"},"countryiso3code":"PHL","date":"2015","value":306445871246.718,"unit":"","obs_status":"","decimal":0},{"indicator":{"id":"NY.GDP.MKTP.CD","value":"GDP (current US$)"},"country":{"id":"PH","value":"Philippines"},"countryiso3code":"PHL","date":"2014","value":297483555344.802,"unit":"","obs_status":"","decimal":0},{"indicator":{"id":"NY.GDP.MKTP.CD","value":"GDP (current US$)"},"country":{"id":"PH","value":"Philippines"},"countryiso3code":"PHL","date":"2013","value":283902828581.65,"unit":"","obs_status":"","decimal":0},{"indicator":{"id":"NY.GDP.MKTP.CD","value":"GDP (current US$)"},"country":{"id":"PH","value":"Philippines"},"countryiso3code":"PHL","date":"2012","value":261920540972.102,"unit":"","obs_status":"","decimal":0},{"indicator":{"id":"NY.GDP.MKTP.CD","value":"GDP (current US$)"},"country":{"id":"PH","value":"Philippines"},"countryiso3code":"PHL","date":"2011","value":234216730295.938,"unit":"","obs_status":"","decimal":0},{"indicator":{"id":"NY.GDP.MKTP.CD","value":"GDP (current US$)"},"country":{"id":"PH","value":"Philippines"},"countryiso3code":"PHL","date":"2010","value":208368893151.144,"unit":"","obs_status":"","decimal":0},{"indicator":{"id":"NY.GDP.MKTP.CD","value":"GDP (current US$)"},"country":{"id":"PH","value":"Philippines"},"countryiso3code":"PHL","date":"2009","value":175974755881.372,"unit":"","obs_status":"","decimal":0},{"indicator":{"id":"NY.GDP.MKTP.CD","value":"GDP (current US$)"},"country":{"id":"PH","value":"Philippines"},"countryiso3code":"PHL","date":"2008","value":181624626327.361,"unit":"","obs_status":"","decimal":0},{"indicator":{"id":"NY.GDP.MKTP.CD","value":"GDP (current US$)"},"country":{"id":"PH","value":"Philippines"},"countryiso3code":"PHL","date":"2007","value":155980408673.403,"unit":"","obs_status":"","decimal":0},{"indicator":{"id":"NY.GDP.MKTP.CD","value":"GDP (current US$)"},"country":{"id":"PH","value":"Philippines"},"countryiso3code":"PHL","date":"2006","value":127652926368.069,"unit":"","obs_status":"","decimal":0},{"indicator":{"id":"NY.GDP.MKTP.CD","value":"GDP (current US$)"},"country":{"id":"PH","value":"Philippines"},"countryiso3code":"PHL","date":"2005","value":107419977318.166,"unit":"","obs_status":"","decimal":0},{"indicator":{"id":"NY.GDP.MKTP.CD","value":"GDP (current US$)"},"country":{"id":"PH","value":"Philippines"},"countryiso3code":"PHL","date":"2004","value":95001999685.3314,"unit":"","obs_status":"","decimal":0},{"indicator":{"id":"NY.GDP.MKTP.CD","value":"GDP (current US$)"},"country":{"id":"PH","value":"Philippines"},"countryiso3code":"PHL","date":"2003","value":87039092974.2272,"unit":"","obs_status":"","decimal":0},{"indicator":{"id":"NY.GDP.MKTP.CD","value":"GDP (current US$)"},"country":{"id":"PH","value":"Philippines"},"countryiso3code":"PHL","date":"2002","value":84307345887.543,"unit":"","obs_status":"","decimal":0},{"indicator":{"id":"NY.GDP.MKTP.CD","value":"GDP (current US$)"},"country":{"id":"PH","value":"Philippines"},"countryiso3code":"PHL","date":"2001","value":78921234457.5487,"unit":"","obs_status":"","decimal":0},{"indicator":{"id":"NY.GDP.MKTP.CD","value":"GDP (current US$)"},"country":{"id":"PH","value":"Philippines"},"countryiso3code":"PHL","date":"2000","value":83669788254.7279,"unit":"","obs_status":"","decimal":0},{"indicator":{"id":"NY.GDP.MKTP.CD","value":"GDP (current US$)"},"country":{"id":"PH","value":"Philippines"},"countryiso3code":"PHL","date":"1999","value":85640171045.1254,"unit":"","obs_status":"","decimal":0},{"indicator":{"id":"NY.GDP.MKTP.CD","value":"GDP (current US$)"},"country":{"id":"PH","value":"Philippines"},"countryiso3code":"PHL","date":"1998","value":74492416329.9142,"unit":"","obs_status":"","decimal":0},{"indicator":{"id":"NY.GDP.MKTP.CD","value":"GDP (current US$)"},"country":{"id":"PH","value":"Philippines"},"countryiso3code":"PHL","date":"1997","value":94106317565.0846,"unit":"","obs_status":"","decimal":0},{"indicator":{"id":"NY.GDP.MKTP.CD","value":"GDP (current US$)"},"country":{"id":"PH","value":"Philippines"},"countryiso3code":"PHL","date":"1996","value":94648084429.0341,"unit":"","obs_status":"","decimal":0},{"indicator":{"id":"NY.GDP.MKTP.CD","value":"GDP (current US$)"},"country":{"id":"PH","value":"Philippines"},"countryiso3code":"PHL","date":"1995","value":84644328727.4825,"unit":"","obs_status":"","decimal":0},{"indicator":{"id":"NY.GDP.MKTP.CD","value":"GDP (current US$)"},"country":{"id":"PH","value":"Philippines"},"countryiso3code":"PHL","date":"1994","value":73159336915.2718,"unit":"","obs_status":"","decimal":0},{"indicator":{"id":"NY.GDP.MKTP.CD","value":"GDP (current US$)"},"country":{"id":"PH","value":"Philippines"},"countryiso3code":"PHL","date":"1993","value":62036529147.1831,"unit":"","obs_status":"","decimal":0},{"indicator":{"id":"NY.GDP.MKTP.CD","value":"GDP (current US$)"},"country":{"id":"PH","value":"Philippines"},"countryiso3code":"PHL","date":"1992","value":60422328242.1803,"unit":"","obs_status":"","decimal":0},{"indicator":{"id":"NY.GDP.MKTP.CD","value":"GDP (current US$)"},"country":{"id":"PH","value":"Philippines"},"countryiso3code":"PHL","date":"1991","value":51784144942.727,"unit":"","obs_status":"","decimal":0},{"indicator":{"id":"NY.GDP.MKTP.CD","value":"GDP (current US$)"},"country":{"id":"PH","value":"Philippines"},"countryiso3code":"PHL","date":"1990","value":50508286641.5746,"unit":"","obs_status":"","decimal":0},{"indicator":{"id":"NY.GDP.MKTP.CD","value":"GDP (current US$)"},"country":{"id":"PH","value":"Philippines"},"countryiso3code":"PHL","date":"1989","value":48513773720.673,"unit":"","obs_status":"","decimal":0},{"indicator":{"id":"NY.GDP.MKTP.CD","value":"GDP (current US$)"},"country":{"id":"PH","value":"Philippines"},"countryiso3code":"PHL","date":"1988","value":43152128958.6116,"unit":"","obs_status":"","decimal":0},{"indicator":{"id":"NY.GDP.MKTP.CD","value":"GDP (current US$)"},"country":{"id":"PH","value":"Philippines"},"countryiso3code":"PHL","date":"1987","value":37791488666.0743,"unit":"","obs_status":"","decimal":0},{"indicator":{"id":"NY.GDP.MKTP.CD","value":"GDP (current US$)"},"country":{"id":"PH","value":"Philippines"},"countryiso3code":"PHL","date":"1986","value":33987207294.9432,"unit":"","obs_status":"","decimal":0},{"indicator":{"id":"NY.GDP.MKTP.CD","value":"GDP (current US$)"},"country":{"id":"PH","value":"Philippines"},"countryiso3code":"PHL","date":"1985","value":34961486348.2382,"unit":"","obs_status":"","decimal":0},{"indicator":{"id":"NY.GDP.MKTP.CD","value":"GDP (current US$)"},"country":{"id":"PH","value":"Philippines"},"countryiso3code":"PHL","date":"1984","value":35730185633.5233,"unit":"","obs_status":"","decimal":0},{"indicator":{"id":"NY.GDP.MKTP.CD","value":"GDP (current US$)"},"country":{"id":"PH","value":"Philippines"},"countryiso3code":"PHL","date":"1983","value":37759179894.5298,"unit":"","obs_status":"","decimal":0},{"indicator":{"id":"NY.GDP.MKTP.CD","value":"GDP (current US$)"},"country":{"id":"PH","value":"Philippines"},"countryiso3code":"PHL","date":"1982","value":42206011275.1757,"unit":"","obs_status":"","decimal":0},{"indicator":{"id":"NY.GDP.MKTP.CD","value":"GDP (current US$)"},"country":{"id":"PH","value":"Philippines"},"countryiso3code":"PHL","date":"1981","value":40499388869.1271,"unit":"","obs_status":"","decimal":0},{"indicator":{"id":"NY.GDP.MKTP.CD","value":"GDP (current US$)"},"country":{"id":"PH","value":"Philippines"},"countryiso3code":"PHL","date":"1980","value":36848080898.8112,"unit":"","obs_status":"","decimal":0},{"indicator":{"id":"NY.GDP.MKTP.CD","value":"GDP (current US$)"},"country":{"id":"PH","value":"Philippines"},"countryiso3code":"PHL","date":"1979","value":31218296292.1295,"unit":"","obs_status":"","decimal":0},{"indicator":{"id":"NY.GDP.MKTP.CD","value":"GDP (current US$)"},"country":{"id":"PH","value":"Philippines"},"countryiso3code":"PHL","date":"1978","value":25762224562.6316,"unit":"","obs_status":"","decimal":0},{"indicator":{"id":"NY.GDP.MKTP.CD","value":"GDP (current US$)"},"country":{"id":"PH","value":"Philippines"},"countryiso3code":"PHL","date":"1977","value":22283109803.3521,"unit":"","obs_status":"","decimal":0},{"indicator":{"id":"NY.GDP.MKTP.CD","value":"GDP (current US$)"},"country":{"id":"PH","value":"Philippines"},"countryiso3code":"PHL","date":"1976","value":19381055197.2794,"unit":"","obs_status":"","decimal":0},{"indicator":{"id":"NY.GDP.MKTP.CD","value":"GDP (current US$)"},"country":{"id":"PH","value":"Philippines"},"countryiso3code":"PHL","date":"1975","value":16875240683.5083,"unit":"","obs_status":"","decimal":0},{"indicator":{"id":"NY.GDP.MKTP.CD","value":"GDP (current US$)"},"country":{"id":"PH","value":"Philippines"},"countryiso3code":"PHL","date":"1974","value":15607882555.2916,"unit":"","obs_status":"","decimal":0}]]