[{"page":1,"pages":2,"per_page":50,"total":64,"sourceid":"2","lastupdated":"2024-10-24"},[{"indicator":{"id":"SH.DYN.MORT","value":"Mortality rate, under-5 (per 1,000 live births)"},"country":{"id":"PH","value":"Philippines"},"countryiso3code":"PHL","date":"2023","value":null,"unit":"","obs_status":"","decimal":0},{"indicator":{"id":"SH.DYN.MORT","value":"Mortality rate, under-5 (per 1,000 live births)"},"country":{"id":"PH","value":"Philippines"},"countryiso3code":"PHL","date":"2022","value":27.5,"unit":"","obs_status":"","decimal":0},{"indicator":{"id":"SH.DYN.MORT","value":"Mortality rate, under-5 (per 1,000 live births)"},"country":{"id":"PH","value":"Philippines"},"countryiso3code":"PHL","date":"2021","value":27.9,"unit":"","obs_status":"","decimal":0},{"indicator":{"id":"SH.DYN.MORT","value":"Mortality rate, under-5 (per 1,000 live births)"},"country":{"id":"PH","value":"Philippines"},"countryiso3code":"PHL","date":"2020","value":28,"unit":"","obs_status":"","decimal":0},{"indicator":{"id":"SH.DYN.MORT","value":"Mortality rate, under-5 (per 1,000 live births)"},"country":{"id":"PH","value":"Philippines"},"countryiso3code":"PHL","date":"2019","value":28,"unit":"","obs_status":"","decimal":0},{"indicator":{"id":"SH.DYN.MORT","value":"Mortality rate, under-5 (per 1,000 live births)"},"country":{"id":"PH","value":"Philippines"},"countryiso3code":"PHL","date":"2018","value":28,"unit":"","obs_status":"","decimal":0},{"indicator":{"id":"SH.DYN.MORT","value":"Mortality rate, under-5 (per 1,000 live births)"},"country":{"id":"PH","value":"Philippines"},"countryiso3code":"PHL","date":"2017","value":27.9,"unit":"","obs_status":"","decimal":0},{"indicator":{"id":"SH.DYN.MORT","value":"Mortality rate, under-5 (per 1,000 live births)"},"country":{"id":"PH","value":"Philippines"},"countryiso3code":"PHL","date":"2016","value":27.9,"unit":"","obs_status":"","decimal":0},{"indicator":{"id":"SH.DYN.MORT","value":"Mortality rate, under-5 (per 1,000 live births)"},"country":{"id":"PH","value":"Philippines"},"countryiso3code":"PHL","date":"2015","value":27.9,"unit":"","obs_status":"","decimal":0},{"indicator":{"id":"SH.DYN.MORT","value":"Mortality rate, under-5 (per 1,000 live births)"},"country":{"id":"PH","value":"Philippines"},"countryiso3code":"PHL","date":"2014","value":28.1,"unit":"","obs_status":"","decimal":0},{"indicator":{"id":"SH.DYN.MORT","value":"Mortality rate, under-5 (per 1,000 live births)"},"country":{"id":"PH","value":"Philippines"},"countryiso3code":"PHL","date":"2013","value":28.3,"unit":"","obs_status":"","decimal":0},{"indicator":{"id":"SH.DYN.MORT","value":"Mortality rate, under-5 (per 1,000 live births)"},"country":{"id":"PH","value":"Philippines"},"countryiso3code":"PHL","date":"2012","value":28.7,"unit":"","obs_status":"","decimal":0},{"indicator":{"id":"SH.DYN.MORT","value":"Mortality rate, under-5 (per 1,000 live births)"},"country":{"id":"PH","value":"Philippines"},"countryiso3code":"PHL","date":"2011","value":29.1,"unit":"","obs_status":"","decimal":0},{"indicator":{"id":"SH.DYN.MORT","value":"Mortality rate, under-5 (per 1,000 live births)"},"country":{"id":"PH","value":"Philippines"},"countryiso3code":"PHL","date":"2010","value":29.6,"unit":"","obs_status":"","decimal":0},{"indicator":{"id":"SH.DYN.MORT","value":"Mortality rate, under-5 (per 1,000 live births)"},"country":{"id":"PH","value":"Philippines"},"countryiso3code":"PHL","date":"2009","value":30.2,"unit":"","obs_status":"","decimal":0},{"indicator":{"id":"SH.DYN.MORT","value":"Mortality rate, under-5 (per 1,000 live births)"},"country":{"id":"PH","value":"Philippines"},"countryiso3code":"PHL","date":"2008","value":30.8,"unit":"","obs_status":"","decimal":0},{"indicator":{"id":"SH.DYN.MORT","value":"Mortality rate, under-5 (per 1,000 live births)"},"country":{"id":"PH","value":"Philippines"},"countryiso3code":"PHL","date":"2007","value":31.4,"unit":"","obs_status":"","decimal":0},{"indicator":{"id":"SH.DYN.MORT","value":"Mortality rate, under-5 (per 1,000 live births)"},"country":{"id":"PH","value":"Philippines"},"countryiso3code":"PHL","date":"2006","value":32.1,"unit":"","obs_status":"","decimal":0},{"indicator":{"id":"SH.DYN.MORT","value":"Mortality rate, under-5 (per 1,000 live births)"},"country":{"id":"PH","value":"Philippines"},"countryiso3code":"PHL","date":"2005","value":32.9,"unit":"","obs_status":"","decimal":0},{"indicator":{"id":"SH.DYN.MORT","value":"Mortality rate, under-5 (per 1,000 live births)"},"country":{"id":"PH","value":"Philippines"},"countryiso3code":"PHL","date":"2004","value":33.7,"unit":"","obs_status":"","decimal":0},{"indicator":{"id":"SH.DYN.MORT","value":"Mortality rate, under-5 (per 1,000 live births)"},"country":{"id":"PH","value":"Philippines"},"countryiso3code":"PHL","date":"2003","value":34.5,"unit":"","obs_status":"","decimal":0},{"indicator":{"id":"SH.DYN.MORT","value":"Mortality rate, under-5 (per 1,000 live births)"},"country":{"id":"PH","value":"Philippines"},"countryiso3code":"PHL","date":"2002","value":35.3,"unit":"","obs_status":"","decimal":0},{"indicator":{"id":"SH.DYN.MORT","value":"Mortality rate, under-5 (per 1,000 live births)"},"country":{"id":"PH","value":"Philippines"},"countryiso3code":"PHL","date":"2001","value":36.1,"unit":"","obs_status":"","decimal":0},{"indicator":{"id":"SH.DYN.MORT","value":"Mortality rate, under-5 (per 1,000 live births)"},"country":{"id":"PH","value":"Philippines"},"countryiso3code":"PHL","date":"2000","value":36.9,"unit":"","obs_status":"","decimal":0},{"indicator":{"id":"SH.DYN.MORT","value":"Mortality rate, under-5 (per 1,000 live births)"},"country":{"id":"PH","value":"Philippines"},"countryiso3code":"PHL","date":"1999","value":37.8,"unit":"","obs_status":"","decimal":0},{"indicator":{"id":"SH.DYN.MORT","value":"Mortality rate, under-5 (per 1,000 live births)"},"country":{"id":"PH","value":"Philippines"},"countryiso3code":"PHL","date":"1998","value":38.8,"unit":"","obs_status":"","decimal":0},{"indicator":{"id":"SH.DYN.MORT","value":"Mortality rate, under-5 (per 1,000 live births)"},"country":{"id":"PH","value":"Philippines"},"countryiso3code":"PHL","date":"1997","value":40,"unit":"","obs_status":"","decimal":0},{"indicator":{"id":"SH.DYN.MORT","value":"Mortality rate, under-5 (per 1,000 live births)"},"country":{"id":"PH","value":"Philippines"},"countryiso3code":"PHL","date":"1996","value":41.4,"unit":"","obs_status":"","decimal":0},{"indicator":{"id":"SH.DYN.MORT","value":"Mortality rate, under-5 (per 1,000 live births)"},"country":{"id":"PH","value":"Philippines"},"countryiso3code":"PHL","date":"1995","value":43.1,"unit":"","obs_status":"","decimal":0},{"indicator":{"id":"SH.DYN.MORT","value":"Mortality rate, under-5 (per 1,000 live births)"},"country":{"id":"PH","value":"Philippines"},"countryiso3code":"PHL","date":"1994","value":45,"unit":"","obs_status":"","decimal":0},{"indicator":{"id":"SH.DYN.MORT","value":"Mortality rate, under-5 (per 1,000 live births)"},"country":{"id":"PH","value":"Philippines"},"countryiso3code":"PHL","date":"1993","value":47.3,"unit":"","obs_status":"","decimal":0},{"indicator":{"id":"SH.DYN.MORT","value":"Mortality rate, under-5 (per 1,000 live births)"},"country":{"id":"PH","value":"Philippines"},"countryiso3code":"PHL","date":"1992","value":49.8,"unit":"","obs_status":"","decimal":0},{"indicator":{"id":"SH.DYN.MORT","value":"Mortality rate, under-5 (per 1,000 live births)"},"country":{"id":"PH","value":"Philippines"},"countryiso3code":"PHL","date":"1991","value":52.8,"unit":"","obs_status":"","decimal":0},{"indicator":{"id":"SH.DYN.MORT","value":"Mortality rate, under-5 (per 1,000 live births)"},"country":{"id":"PH","value":"Philippines"},"countryiso3code":"PHL","date":"1990","value":56.1,"unit":"","obs_status":"","decimal":0},{"indicator":{"id":"SH.DYN.MORT","value":"Mortality rate, under-5 (per 1,000 live births)"},"country":{"id":"PH","value":"Philippines"},"countryiso3code":"PHL","date":"1989","value":59.6,"unit":"","obs_status":"","decimal":0},{"indicator":{"id":"SH.DYN.MORT","value":"Mortality rate, under-5 (per 1,000 live births)"},"country":{"id":"PH","value":"Philippines"},"countryiso3code":"PHL","date":"1988","value":63.2,"unit":"","obs_status":"","decimal":0},{"indicator":{"id":"SH.DYN.MORT","value":"Mortality rate, under-5 (per 1,000 live births)"},"country":{"id":"PH","value":"Philippines"},"countryiso3code":"PHL","date":"1987","value":66.6,"unit":"","obs_status":"","decimal":0},{"indicator":{"id":"SH.DYN.MORT","value":"Mortality rate, under-5 (per 1,000 live births)"},"country":{"id":"PH","value":"Philippines"},"countryiso3code":"PHL","date":"1986","value":69.6,"unit":"","obs_status":"","decimal":0},{"indicator":{"id":"SH.DYN.MORT","value":"Mortality rate, under-5 (per 1,000 live births)"},"country":{"id":"PH","value":"Philippines"},"countryiso3code":"PHL","date":"1985","value":72.1,"unit":"","obs_status":"","decimal":0},{"indicator":{"id":"SH.DYN.MORT","value":"Mortality rate, under-5 (per 1,000 live births)"},"country":{"id":"PH","value":"Philippines"},"countryiso3code":"PHL","date":"1984","value":74,"unit":"","obs_status":"","decimal":0},{"indicator":{"id":"SH.DYN.MORT","value":"Mortality rate, under-5 (per 1,000 live births)"},"country":{"id":"PH","value":"Philippines"},"countryiso3code":"PHL","date":"1983","value":75.5,"unit":"","obs_status":"","decimal":0},{"indicator":{"id":"SH.DYN.MORT","value":"Mortality rate, under-5 (per 1,000 live births)"},"country":{"id":"PH","value":"Philippines"},"countryiso3code":"PHL","date":"1982","value":76.8,"unit":"","obs_status":"","decimal":0},{"indicator":{"id":"SH.DYN.MORT","value":"Mortality rate, under-5 (per 1,000 live births)"},"country":{"id":"PH","value":"Philippines"},"countryiso3code":"PHL","date":"1981","value":78,"unit":"","obs_status":"","decimal":0},{"indicator":{"id":"SH.DYN.MORT","value":"Mortality rate, under-5 (per 1,000 live births)"},"country":{"id":"PH","value":"Philippines"},"countryiso3code":"PHL","date":"1980","value":79,"unit":"","obs_status":"","decimal":0},{"indicator":{"id":"SH.DYN.MORT","value":"Mortality rate, under-5 (per 1,000 live births)"},"country":{"id":"PH","value":"Philippines"},"countryiso3code":"PHL","date":"1979","value":79.9,"unit":"","obs_status":"","decimal":0},{"indicator":{"id":"SH.DYN.MORT","value":"Mortality rate, under-5 (per 1,000 live births)"},"country":{"id":"PH","value":"Philippines"},"countryiso3code":"PHL","date":"1978","value":80.7,"unit":"","obs_status":"","decimal":0},{"indicator":{"id":"SH.DYN.MORT","value":"Mortality rate, under-5 (per 1,000 live births)"},"country":{"id":"PH","value":"Philippines"},"countryiso3code":"PHL","date":"1977","value":81.3,"unit":"","obs_status":"","decimal":0},{"indicator":{"id":"SH.DYN.MORT","value":"Mortality rate, under-5 (per 1,000 live births)"},"country":{"id":"PH","value":"Philippines"},"countryiso3code":"PHL","date":"1976","value":81.6,"unit":"","obs_status":"","decimal":0},{"indicator":{"id":"SH.DYN.MORT","value":"Mortality rate, under-5 (per 1,000 live births)"},"country":{"id":"PH","value":"Philippines"},"countryiso3code":"PHL","date":"1975","value":81.8,"unit":"","obs_status":"","decimal":0},{"indicator":{"id":"SH.DYN.MORT","value":"Mortality rate, under-5 (per 1,000 live births)"},"country":{"id":"PH","value":"Philippines"},"countryiso3code":"PHL","date":"1974","value":81.8,"unit":"","obs_status":"","decimal":0}]]