[{"page":1,"pages":2,"per_page":50,"total":64,"sourceid":"2","lastupdated":"2024-10-24"},[{"indicator":{"id":"SI.POV.DDAY","value":"Poverty headcount ratio at $2.15 a day (2017 PPP) (% of population)"},"country":{"id":"PH","value":"Philippines"},"countryiso3code":"PHL","date":"2023","value":null,"unit":"","obs_status":"","decimal":1},{"indicator":{"id":"SI.POV.DDAY","value":"Poverty headcount ratio at $2.15 a day (2017 PPP) (% of population)"},"country":{"id":"PH","value":"Philippines"},"countryiso3code":"PHL","date":"2022","value":null,"unit":"","obs_status":"","decimal":1},{"indicator":{"id":"SI.POV.DDAY","value":"Poverty headcount ratio at $2.15 a day (2017 PPP) (% of population)"},"country":{"id":"PH","value":"Philippines"},"countryiso3code":"PHL","date":"2021","value":3,"unit":"","obs_status":"","decimal":1},{"indicator":{"id":"SI.POV.DDAY","value":"Poverty headcount ratio at $2.15 a day (2017 PPP) (% of population)"},"country":{"id":"PH","value":"Philippines"},"countryiso3code":"PHL","date":"2020","value":null,"unit":"","obs_status":"","decimal":1},{"indicator":{"id":"SI.POV.DDAY","value":"Poverty headcount ratio at $2.15 a day (2017 PPP) (% of population)"},"country":{"id":"PH","value":"Philippines"},"countryiso3code":"PHL","date":"2019","value":null,"unit":"","obs_status":"","decimal":1},{"indicator":{"id":"SI.POV.DDAY","value":"Poverty headcount ratio at $2.15 a day (2017 PPP) (% of population)"},"country":{"id":"PH","value":"Philippines"},"countryiso3code":"PHL","date":"2018","value":3,"unit":"","obs_status":"","decimal":1},{"indicator":{"id":"SI.POV.DDAY","value":"Poverty headcount ratio at $2.15 a day (2017 PPP) (% of population)"},"country":{"id":"PH","value":"Philippines"},"countryiso3code":"PHL","date":"2017","value":null,"unit":"","obs_status":"","decimal":1},{"indicator":{"id":"SI.POV.DDAY","value":"Poverty headcount ratio at $2.15 a day (2017 PPP) (% of population)"},"country":{"id":"PH","value":"Philippines"},"countryiso3code":"PHL","date":"2016","value":null,"unit":"","obs_status":"","decimal":1},{"indicator":{"id":"SI.POV.DDAY","value":"Poverty headcount ratio at $2.15 a day (2017 PPP) (% of population)"},"country":{"id":"PH","value":"Philippines"},"countryiso3code":"PHL","date":"2015","value":6.5,"unit":"","obs_status":"","decimal":1},{"indicator":{"id":"SI.POV.DDAY","value":"Poverty headcount ratio at $2.15 a day (2017 PPP) (% of population)"},"country":{"id":"PH","value":"Philippines"},"countryiso3code":"PHL","date":"2014","value":null,"unit":"","obs_status":"","decimal":1},{"indicator":{"id":"SI.POV.DDAY","value":"Poverty headcount ratio at $2.15 a day (2017 PPP) (% of population)"},"country":{"id":"PH","value":"Philippines"},"countryiso3code":"PHL","date":"2013","value":null,"unit":"","obs_status":"","decimal":1},{"indicator":{"id":"SI.POV.DDAY","value":"Poverty headcount ratio at $2.15 a day (2017 PPP) (% of population)"},"country":{"id":"PH","value":"Philippines"},"countryiso3code":"PHL","date":"2012","value":10.9,"unit":"","obs_status":"","decimal":1},{"indicator":{"id":"SI.POV.DDAY","value":"Poverty headcount ratio at $2.15 a day (2017 PPP) (% of population)"},"country":{"id":"PH","value":"Philippines"},"countryiso3code":"PHL","date":"2011","value":null,"unit":"","obs_status":"","decimal":1},{"indicator":{"id":"SI.POV.DDAY","value":"Poverty headcount ratio at $2.15 a day (2017 PPP) (% of population)"},"country":{"id":"PH","value":"Philippines"},"countryiso3code":"PHL","date":"2010","value":null,"unit":"","obs_status":"","decimal":1},{"indicator":{"id":"SI.POV.DDAY","value":"Poverty headcount ratio at $2.15 a day (2017 PPP) (% of population)"},"country":{"id":"PH","value":"Philippines"},"countryiso3code":"PHL","date":"2009","value":11.3,"unit":"","obs_status":"","decimal":1},{"indicator":{"id":"SI.POV.DDAY","value":"Poverty headcount ratio at $2.15 a day (2017 PPP) (% of population)"},"country":{"id":"PH","value":"Philippines"},"countryiso3code":"PHL","date":"2008","value":null,"unit":"","obs_status":"","decimal":1},{"indicator":{"id":"SI.POV.DDAY","value":"Poverty headcount ratio at $2.15 a day (2017 PPP) (% of population)"},"country":{"id":"PH","value":"Philippines"},"countryiso3code":"PHL","date":"2007","value":null,"unit":"","obs_status":"","decimal":1},{"indicator":{"id":"SI.POV.DDAY","value":"Poverty headcount ratio at $2.15 a day (2017 PPP) (% of population)"},"country":{"id":"PH","value":"Philippines"},"countryiso3code":"PHL","date":"2006","value":14.9,"unit":"","obs_status":"","decimal":1},{"indicator":{"id":"SI.POV.DDAY","value":"Poverty headcount ratio at $2.15 a day (2017 PPP) (% of population)"},"country":{"id":"PH","value":"Philippines"},"countryiso3code":"PHL","date":"2005","value":null,"unit":"","obs_status":"","decimal":1},{"indicator":{"id":"SI.POV.DDAY","value":"Poverty headcount ratio at $2.15 a day (2017 PPP) (% of population)"},"country":{"id":"PH","value":"Philippines"},"countryiso3code":"PHL","date":"2004","value":null,"unit":"","obs_status":"","decimal":1},{"indicator":{"id":"SI.POV.DDAY","value":"Poverty headcount ratio at $2.15 a day (2017 PPP) (% of population)"},"country":{"id":"PH","value":"Philippines"},"countryiso3code":"PHL","date":"2003","value":13.6,"unit":"","obs_status":"","decimal":1},{"indicator":{"id":"SI.POV.DDAY","value":"Poverty headcount ratio at $2.15 a day (2017 PPP) (% of population)"},"country":{"id":"PH","value":"Philippines"},"countryiso3code":"PHL","date":"2002","value":null,"unit":"","obs_status":"","decimal":1},{"indicator":{"id":"SI.POV.DDAY","value":"Poverty headcount ratio at $2.15 a day (2017 PPP) (% of population)"},"country":{"id":"PH","value":"Philippines"},"countryiso3code":"PHL","date":"2001","value":null,"unit":"","obs_status":"","decimal":1},{"indicator":{"id":"SI.POV.DDAY","value":"Poverty headcount ratio at $2.15 a day (2017 PPP) (% of population)"},"country":{"id":"PH","value":"Philippines"},"countryiso3code":"PHL","date":"2000","value":14.5,"unit":"","obs_status":"","decimal":1},{"indicator":{"id":"SI.POV.DDAY","value":"Poverty headcount ratio at $2.15 a day (2017 PPP) (% of population)"},"country":{"id":"PH","value":"Philippines"},"countryiso3code":"PHL","date":"1999","value":null,"unit":"","obs_status":"","decimal":1},{"indicator":{"id":"SI.POV.DDAY","value":"Poverty headcount ratio at $2.15 a day (2017 PPP) (% of population)"},"country":{"id":"PH","value":"Philippines"},"countryiso3code":"PHL","date":"1998","value":null,"unit":"","obs_status":"","decimal":1},{"indicator":{"id":"SI.POV.DDAY","value":"Poverty headcount ratio at $2.15 a day (2017 PPP) (% of population)"},"country":{"id":"PH","value":"Philippines"},"countryiso3code":"PHL","date":"1997","value":null,"unit":"","obs_status":"","decimal":1},{"indicator":{"id":"SI.POV.DDAY","value":"Poverty headcount ratio at $2.15 a day (2017 PPP) (% of population)"},"country":{"id":"PH","value":"Philippines"},"countryiso3code":"PHL","date":"1996","value":null,"unit":"","obs_status":"","decimal":1},{"indicator":{"id":"SI.POV.DDAY","value":"Poverty headcount ratio at $2.15 a day (2017 PPP) (% of population)"},"country":{"id":"PH","value":"Philippines"},"countryiso3code":"PHL","date":"1995","value":null,"unit":"","obs_status":"","decimal":1},{"indicator":{"id":"SI.POV.DDAY","value":"Poverty headcount ratio at $2.15 a day (2017 PPP) (% of population)"},"country":{"id":"PH","value":"Philippines"},"countryiso3code":"PHL","date":"1994","value":null,"unit":"","obs_status":"","decimal":1},{"indicator":{"id":"SI.POV.DDAY","value":"Poverty headcount ratio at $2.15 a day (2017 PPP) (% of population)"},"country":{"id":"PH","value":"Philippines"},"countryiso3code":"PHL","date":"1993","value":null,"unit":"","obs_status":"","decimal":1},{"indicator":{"id":"SI.POV.DDAY","value":"Poverty headcount ratio at $2.15 a day (2017 PPP) (% of population)"},"country":{"id":"PH","value":"Philippines"},"countryiso3code":"PHL","date":"1992","value":null,"unit":"","obs_status":"","decimal":1},{"indicator":{"id":"SI.POV.DDAY","value":"Poverty headcount ratio at $2.15 a day (2017 PPP) (% of population)"},"country":{"id":"PH","value":"Philippines"},"countryiso3code":"PHL","date":"1991","value":null,"unit":"","obs_status":"","decimal":1},{"indicator":{"id":"SI.POV.DDAY","value":"Poverty headcount ratio at $2.15 a day (2017 PPP) (% of population)"},"country":{"id":"PH","value":"Philippines"},"countryiso3code":"PHL","date":"1990","value":null,"unit":"","obs_status":"","decimal":1},{"indicator":{"id":"SI.POV.DDAY","value":"Poverty headcount ratio at $2.15 a day (2017 PPP) (% of population)"},"country":{"id":"PH","value":"Philippines"},"countryiso3code":"PHL","date":"1989","value":null,"unit":"","obs_status":"","decimal":1},{"indicator":{"id":"SI.POV.DDAY","value":"Poverty headcount ratio at $2.15 a day (2017 PPP) (% of population)"},"country":{"id":"PH","value":"Philippines"},"countryiso3code":"PHL","date":"1988","value":null,"unit":"","obs_status":"","decimal":1},{"indicator":{"id":"SI.POV.DDAY","value":"Poverty headcount ratio at $2.15 a day (2017 PPP) (% of population)"},"country":{"id":"PH","value":"Philippines"},"countryiso3code":"PHL","date":"1987","value":null,"unit":"","obs_status":"","decimal":1},{"indicator":{"id":"SI.POV.DDAY","value":"Poverty headcount ratio at $2.15 a day (2017 PPP) (% of population)"},"country":{"id":"PH","value":"Philippines"},"countryiso3code":"PHL","date":"1986","value":null,"unit":"","obs_status":"","decimal":1},{"indicator":{"id":"SI.POV.DDAY","value":"Poverty headcount ratio at $2.15 a day (2017 PPP) (% of population)"},"country":{"id":"PH","value":"Philippines"},"countryiso3code":"PHL","date":"1985","value":null,"unit":"","obs_status":"","decimal":1},{"indicator":{"id":"SI.POV.DDAY","value":"Poverty headcount ratio at $2.15 a day (2017 PPP) (% of population)"},"country":{"id":"PH","value":"Philippines"},"countryiso3code":"PHL","date":"1984","value":null,"unit":"","obs_status":"","decimal":1},{"indicator":{"id":"SI.POV.DDAY","value":"Poverty headcount ratio at $2.15 a day (2017 PPP) (% of population)"},"country":{"id":"PH","value":"Philippines"},"countryiso3code":"PHL","date":"1983","value":null,"unit":"","obs_status":"","decimal":1},{"indicator":{"id":"SI.POV.DDAY","value":"Poverty headcount ratio at $2.15 a day (2017 PPP) (% of population)"},"country":{"id":"PH","value":"Philippines"},"countryiso3code":"PHL","date":"1982","value":null,"unit":"","obs_status":"","decimal":1},{"indicator":{"id":"SI.POV.DDAY","value":"Poverty headcount ratio at $2.15 a day (2017 PPP) (% of population)"},"country":{"id":"PH","value":"Philippines"},"countryiso3code":"PHL","date":"1981","value":null,"unit":"","obs_status":"","decimal":1},{"indicator":{"id":"SI.POV.DDAY","value":"Poverty headcount ratio at $2.15 a day (2017 PPP) (% of population)"},"country":{"id":"PH","value":"Philippines"},"countryiso3code":"PHL","date":"1980","value":null,"unit":"","obs_status":"","decimal":1},{"indicator":{"id":"SI.POV.DDAY","value":"Poverty headcount ratio at $2.15 a day (2017 PPP) (% of population)"},"country":{"id":"PH","value":"Philippines"},"countryiso3code":"PHL","date":"1979","value":null,"unit":"","obs_status":"","decimal":1},{"indicator":{"id":"SI.POV.DDAY","value":"Poverty headcount ratio at $2.15 a day (2017 PPP) (% of population)"},"country":{"id":"PH","value":"Philippines"},"countryiso3code":"PHL","date":"1978","value":null,"unit":"","obs_status":"","decimal":1},{"indicator":{"id":"SI.POV.DDAY","value":"Poverty headcount ratio at $2.15 a day (2017 PPP) (% of population)"},"country":{"id":"PH","value":"Philippines"},"countryiso3code":"PHL","date":"1977","value":null,"unit":"","obs_status":"","decimal":1},{"indicator":{"id":"SI.POV.DDAY","value":"Poverty headcount ratio at $2.15 a day (2017 PPP) (% of population)"},"country":{"id":"PH","value":"Philippines"},"countryiso3code":"PHL","date":"1976","value":null,"unit":"","obs_status":"","decimal":1},{"indicator":{"id":"SI.POV.DDAY","value":"Poverty headcount ratio at $2.15 a day (2017 PPP) (% of population)"},"country":{"id":"PH","value":"Philippines"},"countryiso3code":"PHL","date":"1975","value":null,"unit":"","obs_status":"","decimal":1},{"indicator":{"id":"SI.POV.DDAY","value":"Poverty headcount ratio at $2.15 a day (2017 PPP) (% of population)"},"country":{"id":"PH","value":"Philippines"},"countryiso3code":"PHL","date":"1974","value":null,"unit":"","obs_status":"","decimal":1}]]