[{"page":1,"pages":2,"per_page":50,"total":64,"sourceid":"2","lastupdated":"2024-11-13"},[{"indicator":{"id":"SL.UEM.TOTL.ZS","value":"Unemployment, total (% of total labor force) (modeled ILO estimate)"},"country":{"id":"PH","value":"Philippines"},"countryiso3code":"PHL","date":"2023","value":2.233,"unit":"","obs_status":"","decimal":1},{"indicator":{"id":"SL.UEM.TOTL.ZS","value":"Unemployment, total (% of total labor force) (modeled ILO estimate)"},"country":{"id":"PH","value":"Philippines"},"countryiso3code":"PHL","date":"2022","value":2.598,"unit":"","obs_status":"","decimal":1},{"indicator":{"id":"SL.UEM.TOTL.ZS","value":"Unemployment, total (% of total labor force) (modeled ILO estimate)"},"country":{"id":"PH","value":"Philippines"},"countryiso3code":"PHL","date":"2021","value":3.398,"unit":"","obs_status":"","decimal":1},{"indicator":{"id":"SL.UEM.TOTL.ZS","value":"Unemployment, total (% of total labor force) (modeled ILO estimate)"},"country":{"id":"PH","value":"Philippines"},"countryiso3code":"PHL","date":"2020","value":2.522,"unit":"","obs_status":"","decimal":1},{"indicator":{"id":"SL.UEM.TOTL.ZS","value":"Unemployment, total (% of total labor force) (modeled ILO estimate)"},"country":{"id":"PH","value":"Philippines"},"countryiso3code":"PHL","date":"2019","value":2.237,"unit":"","obs_status":"","decimal":1},{"indicator":{"id":"SL.UEM.TOTL.ZS","value":"Unemployment, total (% of total labor force) (modeled ILO estimate)"},"country":{"id":"PH","value":"Philippines"},"countryiso3code":"PHL","date":"2018","value":2.338,"unit":"","obs_status":"","decimal":1},{"indicator":{"id":"SL.UEM.TOTL.ZS","value":"Unemployment, total (% of total labor force) (modeled ILO estimate)"},"country":{"id":"PH","value":"Philippines"},"countryiso3code":"PHL","date":"2017","value":2.552,"unit":"","obs_status":"","decimal":1},{"indicator":{"id":"SL.UEM.TOTL.ZS","value":"Unemployment, total (% of total labor force) (modeled ILO estimate)"},"country":{"id":"PH","value":"Philippines"},"countryiso3code":"PHL","date":"2016","value":2.695,"unit":"","obs_status":"","decimal":1},{"indicator":{"id":"SL.UEM.TOTL.ZS","value":"Unemployment, total (% of total labor force) (modeled ILO estimate)"},"country":{"id":"PH","value":"Philippines"},"countryiso3code":"PHL","date":"2015","value":3.068,"unit":"","obs_status":"","decimal":1},{"indicator":{"id":"SL.UEM.TOTL.ZS","value":"Unemployment, total (% of total labor force) (modeled ILO estimate)"},"country":{"id":"PH","value":"Philippines"},"countryiso3code":"PHL","date":"2014","value":3.6,"unit":"","obs_status":"","decimal":1},{"indicator":{"id":"SL.UEM.TOTL.ZS","value":"Unemployment, total (% of total labor force) (modeled ILO estimate)"},"country":{"id":"PH","value":"Philippines"},"countryiso3code":"PHL","date":"2013","value":3.497,"unit":"","obs_status":"","decimal":1},{"indicator":{"id":"SL.UEM.TOTL.ZS","value":"Unemployment, total (% of total labor force) (modeled ILO estimate)"},"country":{"id":"PH","value":"Philippines"},"countryiso3code":"PHL","date":"2012","value":3.504,"unit":"","obs_status":"","decimal":1},{"indicator":{"id":"SL.UEM.TOTL.ZS","value":"Unemployment, total (% of total labor force) (modeled ILO estimate)"},"country":{"id":"PH","value":"Philippines"},"countryiso3code":"PHL","date":"2011","value":3.592,"unit":"","obs_status":"","decimal":1},{"indicator":{"id":"SL.UEM.TOTL.ZS","value":"Unemployment, total (% of total labor force) (modeled ILO estimate)"},"country":{"id":"PH","value":"Philippines"},"countryiso3code":"PHL","date":"2010","value":3.605,"unit":"","obs_status":"","decimal":1},{"indicator":{"id":"SL.UEM.TOTL.ZS","value":"Unemployment, total (% of total labor force) (modeled ILO estimate)"},"country":{"id":"PH","value":"Philippines"},"countryiso3code":"PHL","date":"2009","value":3.858,"unit":"","obs_status":"","decimal":1},{"indicator":{"id":"SL.UEM.TOTL.ZS","value":"Unemployment, total (% of total labor force) (modeled ILO estimate)"},"country":{"id":"PH","value":"Philippines"},"countryiso3code":"PHL","date":"2008","value":3.72,"unit":"","obs_status":"","decimal":1},{"indicator":{"id":"SL.UEM.TOTL.ZS","value":"Unemployment, total (% of total labor force) (modeled ILO estimate)"},"country":{"id":"PH","value":"Philippines"},"countryiso3code":"PHL","date":"2007","value":3.434,"unit":"","obs_status":"","decimal":1},{"indicator":{"id":"SL.UEM.TOTL.ZS","value":"Unemployment, total (% of total labor force) (modeled ILO estimate)"},"country":{"id":"PH","value":"Philippines"},"countryiso3code":"PHL","date":"2006","value":4.052,"unit":"","obs_status":"","decimal":1},{"indicator":{"id":"SL.UEM.TOTL.ZS","value":"Unemployment, total (% of total labor force) (modeled ILO estimate)"},"country":{"id":"PH","value":"Philippines"},"countryiso3code":"PHL","date":"2005","value":3.795,"unit":"","obs_status":"","decimal":1},{"indicator":{"id":"SL.UEM.TOTL.ZS","value":"Unemployment, total (% of total labor force) (modeled ILO estimate)"},"country":{"id":"PH","value":"Philippines"},"countryiso3code":"PHL","date":"2004","value":3.554,"unit":"","obs_status":"","decimal":1},{"indicator":{"id":"SL.UEM.TOTL.ZS","value":"Unemployment, total (% of total labor force) (modeled ILO estimate)"},"country":{"id":"PH","value":"Philippines"},"countryiso3code":"PHL","date":"2003","value":3.527,"unit":"","obs_status":"","decimal":1},{"indicator":{"id":"SL.UEM.TOTL.ZS","value":"Unemployment, total (% of total labor force) (modeled ILO estimate)"},"country":{"id":"PH","value":"Philippines"},"countryiso3code":"PHL","date":"2002","value":3.615,"unit":"","obs_status":"","decimal":1},{"indicator":{"id":"SL.UEM.TOTL.ZS","value":"Unemployment, total (% of total labor force) (modeled ILO estimate)"},"country":{"id":"PH","value":"Philippines"},"countryiso3code":"PHL","date":"2001","value":3.698,"unit":"","obs_status":"","decimal":1},{"indicator":{"id":"SL.UEM.TOTL.ZS","value":"Unemployment, total (% of total labor force) (modeled ILO estimate)"},"country":{"id":"PH","value":"Philippines"},"countryiso3code":"PHL","date":"2000","value":3.77,"unit":"","obs_status":"","decimal":1},{"indicator":{"id":"SL.UEM.TOTL.ZS","value":"Unemployment, total (% of total labor force) (modeled ILO estimate)"},"country":{"id":"PH","value":"Philippines"},"countryiso3code":"PHL","date":"1999","value":3.758,"unit":"","obs_status":"","decimal":1},{"indicator":{"id":"SL.UEM.TOTL.ZS","value":"Unemployment, total (% of total labor force) (modeled ILO estimate)"},"country":{"id":"PH","value":"Philippines"},"countryiso3code":"PHL","date":"1998","value":3.712,"unit":"","obs_status":"","decimal":1},{"indicator":{"id":"SL.UEM.TOTL.ZS","value":"Unemployment, total (% of total labor force) (modeled ILO estimate)"},"country":{"id":"PH","value":"Philippines"},"countryiso3code":"PHL","date":"1997","value":3.618,"unit":"","obs_status":"","decimal":1},{"indicator":{"id":"SL.UEM.TOTL.ZS","value":"Unemployment, total (% of total labor force) (modeled ILO estimate)"},"country":{"id":"PH","value":"Philippines"},"countryiso3code":"PHL","date":"1996","value":3.637,"unit":"","obs_status":"","decimal":1},{"indicator":{"id":"SL.UEM.TOTL.ZS","value":"Unemployment, total (% of total labor force) (modeled ILO estimate)"},"country":{"id":"PH","value":"Philippines"},"countryiso3code":"PHL","date":"1995","value":3.71,"unit":"","obs_status":"","decimal":1},{"indicator":{"id":"SL.UEM.TOTL.ZS","value":"Unemployment, total (% of total labor force) (modeled ILO estimate)"},"country":{"id":"PH","value":"Philippines"},"countryiso3code":"PHL","date":"1994","value":3.796,"unit":"","obs_status":"","decimal":1},{"indicator":{"id":"SL.UEM.TOTL.ZS","value":"Unemployment, total (% of total labor force) (modeled ILO estimate)"},"country":{"id":"PH","value":"Philippines"},"countryiso3code":"PHL","date":"1993","value":3.897,"unit":"","obs_status":"","decimal":1},{"indicator":{"id":"SL.UEM.TOTL.ZS","value":"Unemployment, total (% of total labor force) (modeled ILO estimate)"},"country":{"id":"PH","value":"Philippines"},"countryiso3code":"PHL","date":"1992","value":3.882,"unit":"","obs_status":"","decimal":1},{"indicator":{"id":"SL.UEM.TOTL.ZS","value":"Unemployment, total (% of total labor force) (modeled ILO estimate)"},"country":{"id":"PH","value":"Philippines"},"countryiso3code":"PHL","date":"1991","value":3.77,"unit":"","obs_status":"","decimal":1},{"indicator":{"id":"SL.UEM.TOTL.ZS","value":"Unemployment, total (% of total labor force) (modeled ILO estimate)"},"country":{"id":"PH","value":"Philippines"},"countryiso3code":"PHL","date":"1990","value":null,"unit":"","obs_status":"","decimal":1},{"indicator":{"id":"SL.UEM.TOTL.ZS","value":"Unemployment, total (% of total labor force) (modeled ILO estimate)"},"country":{"id":"PH","value":"Philippines"},"countryiso3code":"PHL","date":"1989","value":null,"unit":"","obs_status":"","decimal":1},{"indicator":{"id":"SL.UEM.TOTL.ZS","value":"Unemployment, total (% of total labor force) (modeled ILO estimate)"},"country":{"id":"PH","value":"Philippines"},"countryiso3code":"PHL","date":"1988","value":null,"unit":"","obs_status":"","decimal":1},{"indicator":{"id":"SL.UEM.TOTL.ZS","value":"Unemployment, total (% of total labor force) (modeled ILO estimate)"},"country":{"id":"PH","value":"Philippines"},"countryiso3code":"PHL","date":"1987","value":null,"unit":"","obs_status":"","decimal":1},{"indicator":{"id":"SL.UEM.TOTL.ZS","value":"Unemployment, total (% of total labor force) (modeled ILO estimate)"},"country":{"id":"PH","value":"Philippines"},"countryiso3code":"PHL","date":"1986","value":null,"unit":"","obs_status":"","decimal":1},{"indicator":{"id":"SL.UEM.TOTL.ZS","value":"Unemployment, total (% of total labor force) (modeled ILO estimate)"},"country":{"id":"PH","value":"Philippines"},"countryiso3code":"PHL","date":"1985","value":null,"unit":"","obs_status":"","decimal":1},{"indicator":{"id":"SL.UEM.TOTL.ZS","value":"Unemployment, total (% of total labor force) (modeled ILO estimate)"},"country":{"id":"PH","value":"Philippines"},"countryiso3code":"PHL","date":"1984","value":null,"unit":"","obs_status":"","decimal":1},{"indicator":{"id":"SL.UEM.TOTL.ZS","value":"Unemployment, total (% of total labor force) (modeled ILO estimate)"},"country":{"id":"PH","value":"Philippines"},"countryiso3code":"PHL","date":"1983","value":null,"unit":"","obs_status":"","decimal":1},{"indicator":{"id":"SL.UEM.TOTL.ZS","value":"Unemployment, total (% of total labor force) (modeled ILO estimate)"},"country":{"id":"PH","value":"Philippines"},"countryiso3code":"PHL","date":"1982","value":null,"unit":"","obs_status":"","decimal":1},{"indicator":{"id":"SL.UEM.TOTL.ZS","value":"Unemployment, total (% of total labor force) (modeled ILO estimate)"},"country":{"id":"PH","value":"Philippines"},"countryiso3code":"PHL","date":"1981","value":null,"unit":"","obs_status":"","decimal":1},{"indicator":{"id":"SL.UEM.TOTL.ZS","value":"Unemployment, total (% of total labor force) (modeled ILO estimate)"},"country":{"id":"PH","value":"Philippines"},"countryiso3code":"PHL","date":"1980","value":null,"unit":"","obs_status":"","decimal":1},{"indicator":{"id":"SL.UEM.TOTL.ZS","value":"Unemployment, total (% of total labor force) (modeled ILO estimate)"},"country":{"id":"PH","value":"Philippines"},"countryiso3code":"PHL","date":"1979","value":null,"unit":"","obs_status":"","decimal":1},{"indicator":{"id":"SL.UEM.TOTL.ZS","value":"Unemployment, total (% of total labor force) (modeled ILO estimate)"},"country":{"id":"PH","value":"Philippines"},"countryiso3code":"PHL","date":"1978","value":null,"unit":"","obs_status":"","decimal":1},{"indicator":{"id":"SL.UEM.TOTL.ZS","value":"Unemployment, total (% of total labor force) (modeled ILO estimate)"},"country":{"id":"PH","value":"Philippines"},"countryiso3code":"PHL","date":"1977","value":null,"unit":"","obs_status":"","decimal":1},{"indicator":{"id":"SL.UEM.TOTL.ZS","value":"Unemployment, total (% of total labor force) (modeled ILO estimate)"},"country":{"id":"PH","value":"Philippines"},"countryiso3code":"PHL","date":"1976","value":null,"unit":"","obs_status":"","decimal":1},{"indicator":{"id":"SL.UEM.TOTL.ZS","value":"Unemployment, total (% of total labor force) (modeled ILO estimate)"},"country":{"id":"PH","value":"Philippines"},"countryiso3code":"PHL","date":"1975","value":null,"unit":"","obs_status":"","decimal":1},{"indicator":{"id":"SL.UEM.TOTL.ZS","value":"Unemployment, total (% of total labor force) (modeled ILO estimate)"},"country":{"id":"PH","value":"Philippines"},"countryiso3code":"PHL","date":"1974","value":null,"unit":"","obs_status":"","decimal":1}]]