[{"page":1,"pages":2,"per_page":50,"total":64,"sourceid":"2","lastupdated":"2024-11-13"},[{"indicator":{"id":"SP.DYN.LE00.IN","value":"Life expectancy at birth, total (years)"},"country":{"id":"PH","value":"Philippines"},"countryiso3code":"PHL","date":"2023","value":null,"unit":"","obs_status":"","decimal":0},{"indicator":{"id":"SP.DYN.LE00.IN","value":"Life expectancy at birth, total (years)"},"country":{"id":"PH","value":"Philippines"},"countryiso3code":"PHL","date":"2022","value":72.187,"unit":"","obs_status":"","decimal":0},{"indicator":{"id":"SP.DYN.LE00.IN","value":"Life expectancy at birth, total (years)"},"country":{"id":"PH","value":"Philippines"},"countryiso3code":"PHL","date":"2021","value":69.266,"unit":"","obs_status":"","decimal":0},{"indicator":{"id":"SP.DYN.LE00.IN","value":"Life expectancy at birth, total (years)"},"country":{"id":"PH","value":"Philippines"},"countryiso3code":"PHL","date":"2020","value":72.119,"unit":"","obs_status":"","decimal":0},{"indicator":{"id":"SP.DYN.LE00.IN","value":"Life expectancy at birth, total (years)"},"country":{"id":"PH","value":"Philippines"},"countryiso3code":"PHL","date":"2019","value":71.865,"unit":"","obs_status":"","decimal":0},{"indicator":{"id":"SP.DYN.LE00.IN","value":"Life expectancy at birth, total (years)"},"country":{"id":"PH","value":"Philippines"},"countryiso3code":"PHL","date":"2018","value":71.689,"unit":"","obs_status":"","decimal":0},{"indicator":{"id":"SP.DYN.LE00.IN","value":"Life expectancy at birth, total (years)"},"country":{"id":"PH","value":"Philippines"},"countryiso3code":"PHL","date":"2017","value":71.516,"unit":"","obs_status":"","decimal":0},{"indicator":{"id":"SP.DYN.LE00.IN","value":"Life expectancy at birth, total (years)"},"country":{"id":"PH","value":"Philippines"},"countryiso3code":"PHL","date":"2016","value":71.387,"unit":"","obs_status":"","decimal":0},{"indicator":{"id":"SP.DYN.LE00.IN","value":"Life expectancy at birth, total (years)"},"country":{"id":"PH","value":"Philippines"},"countryiso3code":"PHL","date":"2015","value":71.268,"unit":"","obs_status":"","decimal":0},{"indicator":{"id":"SP.DYN.LE00.IN","value":"Life expectancy at birth, total (years)"},"country":{"id":"PH","value":"Philippines"},"countryiso3code":"PHL","date":"2014","value":71.151,"unit":"","obs_status":"","decimal":0},{"indicator":{"id":"SP.DYN.LE00.IN","value":"Life expectancy at birth, total (years)"},"country":{"id":"PH","value":"Philippines"},"countryiso3code":"PHL","date":"2013","value":70.835,"unit":"","obs_status":"","decimal":0},{"indicator":{"id":"SP.DYN.LE00.IN","value":"Life expectancy at birth, total (years)"},"country":{"id":"PH","value":"Philippines"},"countryiso3code":"PHL","date":"2012","value":70.881,"unit":"","obs_status":"","decimal":0},{"indicator":{"id":"SP.DYN.LE00.IN","value":"Life expectancy at birth, total (years)"},"country":{"id":"PH","value":"Philippines"},"countryiso3code":"PHL","date":"2011","value":70.788,"unit":"","obs_status":"","decimal":0},{"indicator":{"id":"SP.DYN.LE00.IN","value":"Life expectancy at birth, total (years)"},"country":{"id":"PH","value":"Philippines"},"countryiso3code":"PHL","date":"2010","value":70.754,"unit":"","obs_status":"","decimal":0},{"indicator":{"id":"SP.DYN.LE00.IN","value":"Life expectancy at birth, total (years)"},"country":{"id":"PH","value":"Philippines"},"countryiso3code":"PHL","date":"2009","value":70.633,"unit":"","obs_status":"","decimal":0},{"indicator":{"id":"SP.DYN.LE00.IN","value":"Life expectancy at birth, total (years)"},"country":{"id":"PH","value":"Philippines"},"countryiso3code":"PHL","date":"2008","value":70.564,"unit":"","obs_status":"","decimal":0},{"indicator":{"id":"SP.DYN.LE00.IN","value":"Life expectancy at birth, total (years)"},"country":{"id":"PH","value":"Philippines"},"countryiso3code":"PHL","date":"2007","value":70.483,"unit":"","obs_status":"","decimal":0},{"indicator":{"id":"SP.DYN.LE00.IN","value":"Life expectancy at birth, total (years)"},"country":{"id":"PH","value":"Philippines"},"countryiso3code":"PHL","date":"2006","value":70.282,"unit":"","obs_status":"","decimal":0},{"indicator":{"id":"SP.DYN.LE00.IN","value":"Life expectancy at birth, total (years)"},"country":{"id":"PH","value":"Philippines"},"countryiso3code":"PHL","date":"2005","value":70.24,"unit":"","obs_status":"","decimal":0},{"indicator":{"id":"SP.DYN.LE00.IN","value":"Life expectancy at birth, total (years)"},"country":{"id":"PH","value":"Philippines"},"countryiso3code":"PHL","date":"2004","value":70.037,"unit":"","obs_status":"","decimal":0},{"indicator":{"id":"SP.DYN.LE00.IN","value":"Life expectancy at birth, total (years)"},"country":{"id":"PH","value":"Philippines"},"countryiso3code":"PHL","date":"2003","value":69.924,"unit":"","obs_status":"","decimal":0},{"indicator":{"id":"SP.DYN.LE00.IN","value":"Life expectancy at birth, total (years)"},"country":{"id":"PH","value":"Philippines"},"countryiso3code":"PHL","date":"2002","value":69.781,"unit":"","obs_status":"","decimal":0},{"indicator":{"id":"SP.DYN.LE00.IN","value":"Life expectancy at birth, total (years)"},"country":{"id":"PH","value":"Philippines"},"countryiso3code":"PHL","date":"2001","value":69.614,"unit":"","obs_status":"","decimal":0},{"indicator":{"id":"SP.DYN.LE00.IN","value":"Life expectancy at birth, total (years)"},"country":{"id":"PH","value":"Philippines"},"countryiso3code":"PHL","date":"2000","value":69.413,"unit":"","obs_status":"","decimal":0},{"indicator":{"id":"SP.DYN.LE00.IN","value":"Life expectancy at birth, total (years)"},"country":{"id":"PH","value":"Philippines"},"countryiso3code":"PHL","date":"1999","value":69.298,"unit":"","obs_status":"","decimal":0},{"indicator":{"id":"SP.DYN.LE00.IN","value":"Life expectancy at birth, total (years)"},"country":{"id":"PH","value":"Philippines"},"countryiso3code":"PHL","date":"1998","value":69.1,"unit":"","obs_status":"","decimal":0},{"indicator":{"id":"SP.DYN.LE00.IN","value":"Life expectancy at birth, total (years)"},"country":{"id":"PH","value":"Philippines"},"countryiso3code":"PHL","date":"1997","value":68.884,"unit":"","obs_status":"","decimal":0},{"indicator":{"id":"SP.DYN.LE00.IN","value":"Life expectancy at birth, total (years)"},"country":{"id":"PH","value":"Philippines"},"countryiso3code":"PHL","date":"1996","value":68.614,"unit":"","obs_status":"","decimal":0},{"indicator":{"id":"SP.DYN.LE00.IN","value":"Life expectancy at birth, total (years)"},"country":{"id":"PH","value":"Philippines"},"countryiso3code":"PHL","date":"1995","value":68.223,"unit":"","obs_status":"","decimal":0},{"indicator":{"id":"SP.DYN.LE00.IN","value":"Life expectancy at birth, total (years)"},"country":{"id":"PH","value":"Philippines"},"countryiso3code":"PHL","date":"1994","value":67.942,"unit":"","obs_status":"","decimal":0},{"indicator":{"id":"SP.DYN.LE00.IN","value":"Life expectancy at birth, total (years)"},"country":{"id":"PH","value":"Philippines"},"countryiso3code":"PHL","date":"1993","value":67.542,"unit":"","obs_status":"","decimal":0},{"indicator":{"id":"SP.DYN.LE00.IN","value":"Life expectancy at birth, total (years)"},"country":{"id":"PH","value":"Philippines"},"countryiso3code":"PHL","date":"1992","value":67.088,"unit":"","obs_status":"","decimal":0},{"indicator":{"id":"SP.DYN.LE00.IN","value":"Life expectancy at birth, total (years)"},"country":{"id":"PH","value":"Philippines"},"countryiso3code":"PHL","date":"1991","value":66.304,"unit":"","obs_status":"","decimal":0},{"indicator":{"id":"SP.DYN.LE00.IN","value":"Life expectancy at birth, total (years)"},"country":{"id":"PH","value":"Philippines"},"countryiso3code":"PHL","date":"1990","value":65.909,"unit":"","obs_status":"","decimal":0},{"indicator":{"id":"SP.DYN.LE00.IN","value":"Life expectancy at birth, total (years)"},"country":{"id":"PH","value":"Philippines"},"countryiso3code":"PHL","date":"1989","value":65.464,"unit":"","obs_status":"","decimal":0},{"indicator":{"id":"SP.DYN.LE00.IN","value":"Life expectancy at birth, total (years)"},"country":{"id":"PH","value":"Philippines"},"countryiso3code":"PHL","date":"1988","value":64.898,"unit":"","obs_status":"","decimal":0},{"indicator":{"id":"SP.DYN.LE00.IN","value":"Life expectancy at birth, total (years)"},"country":{"id":"PH","value":"Philippines"},"countryiso3code":"PHL","date":"1987","value":64.335,"unit":"","obs_status":"","decimal":0},{"indicator":{"id":"SP.DYN.LE00.IN","value":"Life expectancy at birth, total (years)"},"country":{"id":"PH","value":"Philippines"},"countryiso3code":"PHL","date":"1986","value":63.745,"unit":"","obs_status":"","decimal":0},{"indicator":{"id":"SP.DYN.LE00.IN","value":"Life expectancy at birth, total (years)"},"country":{"id":"PH","value":"Philippines"},"countryiso3code":"PHL","date":"1985","value":63.505,"unit":"","obs_status":"","decimal":0},{"indicator":{"id":"SP.DYN.LE00.IN","value":"Life expectancy at birth, total (years)"},"country":{"id":"PH","value":"Philippines"},"countryiso3code":"PHL","date":"1984","value":63.112,"unit":"","obs_status":"","decimal":0},{"indicator":{"id":"SP.DYN.LE00.IN","value":"Life expectancy at birth, total (years)"},"country":{"id":"PH","value":"Philippines"},"countryiso3code":"PHL","date":"1983","value":62.992,"unit":"","obs_status":"","decimal":0},{"indicator":{"id":"SP.DYN.LE00.IN","value":"Life expectancy at birth, total (years)"},"country":{"id":"PH","value":"Philippines"},"countryiso3code":"PHL","date":"1982","value":62.784,"unit":"","obs_status":"","decimal":0},{"indicator":{"id":"SP.DYN.LE00.IN","value":"Life expectancy at birth, total (years)"},"country":{"id":"PH","value":"Philippines"},"countryiso3code":"PHL","date":"1981","value":62.555,"unit":"","obs_status":"","decimal":0},{"indicator":{"id":"SP.DYN.LE00.IN","value":"Life expectancy at birth, total (years)"},"country":{"id":"PH","value":"Philippines"},"countryiso3code":"PHL","date":"1980","value":62.499,"unit":"","obs_status":"","decimal":0},{"indicator":{"id":"SP.DYN.LE00.IN","value":"Life expectancy at birth, total (years)"},"country":{"id":"PH","value":"Philippines"},"countryiso3code":"PHL","date":"1979","value":62.349,"unit":"","obs_status":"","decimal":0},{"indicator":{"id":"SP.DYN.LE00.IN","value":"Life expectancy at birth, total (years)"},"country":{"id":"PH","value":"Philippines"},"countryiso3code":"PHL","date":"1978","value":62.185,"unit":"","obs_status":"","decimal":0},{"indicator":{"id":"SP.DYN.LE00.IN","value":"Life expectancy at birth, total (years)"},"country":{"id":"PH","value":"Philippines"},"countryiso3code":"PHL","date":"1977","value":62.149,"unit":"","obs_status":"","decimal":0},{"indicator":{"id":"SP.DYN.LE00.IN","value":"Life expectancy at birth, total (years)"},"country":{"id":"PH","value":"Philippines"},"countryiso3code":"PHL","date":"1976","value":61.614,"unit":"","obs_status":"","decimal":0},{"indicator":{"id":"SP.DYN.LE00.IN","value":"Life expectancy at birth, total (years)"},"country":{"id":"PH","value":"Philippines"},"countryiso3code":"PHL","date":"1975","value":61.704,"unit":"","obs_status":"","decimal":0},{"indicator":{"id":"SP.DYN.LE00.IN","value":"Life expectancy at birth, total (years)"},"country":{"id":"PH","value":"Philippines"},"countryiso3code":"PHL","date":"1974","value":61.68,"unit":"","obs_status":"","decimal":0}]]