[{"page":1,"pages":2,"per_page":50,"total":64,"sourceid":"2","lastupdated":"2024-11-13"},[{"indicator":{"id":"SP.POP.TOTL","value":"Population, total"},"country":{"id":"PH","value":"Philippines"},"countryiso3code":"PHL","date":"2023","value":117337368,"unit":"","obs_status":"","decimal":0},{"indicator":{"id":"SP.POP.TOTL","value":"Population, total"},"country":{"id":"PH","value":"Philippines"},"countryiso3code":"PHL","date":"2022","value":115559009,"unit":"","obs_status":"","decimal":0},{"indicator":{"id":"SP.POP.TOTL","value":"Population, total"},"country":{"id":"PH","value":"Philippines"},"countryiso3code":"PHL","date":"2021","value":113880328,"unit":"","obs_status":"","decimal":0},{"indicator":{"id":"SP.POP.TOTL","value":"Population, total"},"country":{"id":"PH","value":"Philippines"},"countryiso3code":"PHL","date":"2020","value":112190977,"unit":"","obs_status":"","decimal":0},{"indicator":{"id":"SP.POP.TOTL","value":"Population, total"},"country":{"id":"PH","value":"Philippines"},"countryiso3code":"PHL","date":"2019","value":110380804,"unit":"","obs_status":"","decimal":0},{"indicator":{"id":"SP.POP.TOTL","value":"Population, total"},"country":{"id":"PH","value":"Philippines"},"countryiso3code":"PHL","date":"2018","value":108568836,"unit":"","obs_status":"","decimal":0},{"indicator":{"id":"SP.POP.TOTL","value":"Population, total"},"country":{"id":"PH","value":"Philippines"},"countryiso3code":"PHL","date":"2017","value":106738501,"unit":"","obs_status":"","decimal":0},{"indicator":{"id":"SP.POP.TOTL","value":"Population, total"},"country":{"id":"PH","value":"Philippines"},"countryiso3code":"PHL","date":"2016","value":104875266,"unit":"","obs_status":"","decimal":0},{"indicator":{"id":"SP.POP.TOTL","value":"Population, total"},"country":{"id":"PH","value":"Philippines"},"countryiso3code":"PHL","date":"2015","value":103031365,"unit":"","obs_status":"","decimal":0},{"indicator":{"id":"SP.POP.TOTL","value":"Population, total"},"country":{"id":"PH","value":"Philippines"},"countryiso3code":"PHL","date":"2014","value":101325201,"unit":"","obs_status":"","decimal":0},{"indicator":{"id":"SP.POP.TOTL","value":"Population, total"},"country":{"id":"PH","value":"Philippines"},"countryiso3code":"PHL","date":"2013","value":99700107,"unit":"","obs_status":"","decimal":0},{"indicator":{"id":"SP.POP.TOTL","value":"Population, total"},"country":{"id":"PH","value":"Philippines"},"countryiso3code":"PHL","date":"2012","value":98032317,"unit":"","obs_status":"","decimal":0},{"indicator":{"id":"SP.POP.TOTL","value":"Population, total"},"country":{"id":"PH","value":"Philippines"},"countryiso3code":"PHL","date":"2011","value":96337913,"unit":"","obs_status":"","decimal":0},{"indicator":{"id":"SP.POP.TOTL","value":"Population, total"},"country":{"id":"PH","value":"Philippines"},"countryiso3code":"PHL","date":"2010","value":94636700,"unit":"","obs_status":"","decimal":0},{"indicator":{"id":"SP.POP.TOTL","value":"Population, total"},"country":{"id":"PH","value":"Philippines"},"countryiso3code":"PHL","date":"2009","value":92946951,"unit":"","obs_status":"","decimal":0},{"indicator":{"id":"SP.POP.TOTL","value":"Population, total"},"country":{"id":"PH","value":"Philippines"},"countryiso3code":"PHL","date":"2008","value":91252326,"unit":"","obs_status":"","decimal":0},{"indicator":{"id":"SP.POP.TOTL","value":"Population, total"},"country":{"id":"PH","value":"Philippines"},"countryiso3code":"PHL","date":"2007","value":89561377,"unit":"","obs_status":"","decimal":0},{"indicator":{"id":"SP.POP.TOTL","value":"Population, total"},"country":{"id":"PH","value":"Philippines"},"countryiso3code":"PHL","date":"2006","value":87901835,"unit":"","obs_status":"","decimal":0},{"indicator":{"id":"SP.POP.TOTL","value":"Population, total"},"country":{"id":"PH","value":"Philippines"},"countryiso3code":"PHL","date":"2005","value":86261250,"unit":"","obs_status":"","decimal":0},{"indicator":{"id":"SP.POP.TOTL","value":"Population, total"},"country":{"id":"PH","value":"Philippines"},"countryiso3code":"PHL","date":"2004","value":84607501,"unit":"","obs_status":"","decimal":0},{"indicator":{"id":"SP.POP.TOTL","value":"Population, total"},"country":{"id":"PH","value":"Philippines"},"countryiso3code":"PHL","date":"2003","value":82942837,"unit":"","obs_status":"","decimal":0},{"indicator":{"id":"SP.POP.TOTL","value":"Population, total"},"country":{"id":"PH","value":"Philippines"},"countryiso3code":"PHL","date":"2002","value":81285572,"unit":"","obs_status":"","decimal":0},{"indicator":{"id":"SP.POP.TOTL","value":"Population, total"},"country":{"id":"PH","value":"Philippines"},"countryiso3code":"PHL","date":"2001","value":79626086,"unit":"","obs_status":"","decimal":0},{"indicator":{"id":"SP.POP.TOTL","value":"Population, total"},"country":{"id":"PH","value":"Philippines"},"countryiso3code":"PHL","date":"2000","value":77958223,"unit":"","obs_status":"","decimal":0},{"indicator":{"id":"SP.POP.TOTL","value":"Population, total"},"country":{"id":"PH","value":"Philippines"},"countryiso3code":"PHL","date":"1999","value":76249064,"unit":"","obs_status":"","decimal":0},{"indicator":{"id":"SP.POP.TOTL","value":"Population, total"},"country":{"id":"PH","value":"Philippines"},"countryiso3code":"PHL","date":"1998","value":74491918,"unit":"","obs_status":"","decimal":0},{"indicator":{"id":"SP.POP.TOTL","value":"Population, total"},"country":{"id":"PH","value":"Philippines"},"countryiso3code":"PHL","date":"1997","value":72718837,"unit":"","obs_status":"","decimal":0},{"indicator":{"id":"SP.POP.TOTL","value":"Population, total"},"country":{"id":"PH","value":"Philippines"},"countryiso3code":"PHL","date":"1996","value":70944969,"unit":"","obs_status":"","decimal":0},{"indicator":{"id":"SP.POP.TOTL","value":"Population, total"},"country":{"id":"PH","value":"Philippines"},"countryiso3code":"PHL","date":"1995","value":69250468,"unit":"","obs_status":"","decimal":0},{"indicator":{"id":"SP.POP.TOTL","value":"Population, total"},"country":{"id":"PH","value":"Philippines"},"countryiso3code":"PHL","date":"1994","value":67650283,"unit":"","obs_status":"","decimal":0},{"indicator":{"id":"SP.POP.TOTL","value":"Population, total"},"country":{"id":"PH","value":"Philippines"},"countryiso3code":"PHL","date":"1993","value":66083321,"unit":"","obs_status":"","decimal":0},{"indicator":{"id":"SP.POP.TOTL","value":"Population, total"},"country":{"id":"PH","value":"Philippines"},"countryiso3code":"PHL","date":"1992","value":64543525,"unit":"","obs_status":"","decimal":0},{"indicator":{"id":"SP.POP.TOTL","value":"Population, total"},"country":{"id":"PH","value":"Philippines"},"countryiso3code":"PHL","date":"1991","value":63039751,"unit":"","obs_status":"","decimal":0},{"indicator":{"id":"SP.POP.TOTL","value":"Population, total"},"country":{"id":"PH","value":"Philippines"},"countryiso3code":"PHL","date":"1990","value":61558898,"unit":"","obs_status":"","decimal":0},{"indicator":{"id":"SP.POP.TOTL","value":"Population, total"},"country":{"id":"PH","value":"Philippines"},"countryiso3code":"PHL","date":"1989","value":60127343,"unit":"","obs_status":"","decimal":0},{"indicator":{"id":"SP.POP.TOTL","value":"Population, total"},"country":{"id":"PH","value":"Philippines"},"countryiso3code":"PHL","date":"1988","value":58755923,"unit":"","obs_status":"","decimal":0},{"indicator":{"id":"SP.POP.TOTL","value":"Population, total"},"country":{"id":"PH","value":"Philippines"},"countryiso3code":"PHL","date":"1987","value":57415175,"unit":"","obs_status":"","decimal":0},{"indicator":{"id":"SP.POP.TOTL","value":"Population, total"},"country":{"id":"PH","value":"Philippines"},"countryiso3code":"PHL","date":"1986","value":56109838,"unit":"","obs_status":"","decimal":0},{"indicator":{"id":"SP.POP.TOTL","value":"Population, total"},"country":{"id":"PH","value":"Philippines"},"countryiso3code":"PHL","date":"1985","value":54812660,"unit":"","obs_status":"","decimal":0},{"indicator":{"id":"SP.POP.TOTL","value":"Population, total"},"country":{"id":"PH","value":"Philippines"},"countryiso3code":"PHL","date":"1984","value":53514959,"unit":"","obs_status":"","decimal":0},{"indicator":{"id":"SP.POP.TOTL","value":"Population, total"},"country":{"id":"PH","value":"Philippines"},"countryiso3code":"PHL","date":"1983","value":52219685,"unit":"","obs_status":"","decimal":0},{"indicator":{"id":"SP.POP.TOTL","value":"Population, total"},"country":{"id":"PH","value":"Philippines"},"countryiso3code":"PHL","date":"1982","value":50938522,"unit":"","obs_status":"","decimal":0},{"indicator":{"id":"SP.POP.TOTL","value":"Population, total"},"country":{"id":"PH","value":"Philippines"},"countryiso3code":"PHL","date":"1981","value":49679330,"unit":"","obs_status":"","decimal":0},{"indicator":{"id":"SP.POP.TOTL","value":"Population, total"},"country":{"id":"PH","value":"Philippines"},"countryiso3code":"PHL","date":"1980","value":48419546,"unit":"","obs_status":"","decimal":0},{"indicator":{"id":"SP.POP.TOTL","value":"Population, total"},"country":{"id":"PH","value":"Philippines"},"countryiso3code":"PHL","date":"1979","value":47154232,"unit":"","obs_status":"","decimal":0},{"indicator":{"id":"SP.POP.TOTL","value":"Population, total"},"country":{"id":"PH","value":"Philippines"},"countryiso3code":"PHL","date":"1978","value":45890739,"unit":"","obs_status":"","decimal":0},{"indicator":{"id":"SP.POP.TOTL","value":"Population, total"},"country":{"id":"PH","value":"Philippines"},"countryiso3code":"PHL","date":"1977","value":44646518,"unit":"","obs_status":"","decimal":0},{"indicator":{"id":"SP.POP.TOTL","value":"Population, total"},"country":{"id":"PH","value":"Philippines"},"countryiso3code":"PHL","date":"1976","value":43474370,"unit":"","obs_status":"","decimal":0},{"indicator":{"id":"SP.POP.TOTL","value":"Population, total"},"country":{"id":"PH","value":"Philippines"},"countryiso3code":"PHL","date":"1975","value":42394433,"unit":"","obs_status":"","decimal":0},{"indicator":{"id":"SP.POP.TOTL","value":"Population, total"},"country":{"id":"PH","value":"Philippines"},"countryiso3code":"PHL","date":"1974","value":41388324,"unit":"","obs_status":"","decimal":0}]]