[{"page":1,"pages":2,"per_page":50,"total":64,"sourceid":"2","lastupdated":"2024-11-13"},[{"indicator":{"id":"SP.URB.TOTL.IN.ZS","value":"Urban population (% of total population)"},"country":{"id":"PH","value":"Philippines"},"countryiso3code":"PHL","date":"2023","value":48.287,"unit":"","obs_status":"","decimal":0},{"indicator":{"id":"SP.URB.TOTL.IN.ZS","value":"Urban population (% of total population)"},"country":{"id":"PH","value":"Philippines"},"countryiso3code":"PHL","date":"2022","value":47.977,"unit":"","obs_status":"","decimal":0},{"indicator":{"id":"SP.URB.TOTL.IN.ZS","value":"Urban population (% of total population)"},"country":{"id":"PH","value":"Philippines"},"countryiso3code":"PHL","date":"2021","value":47.684,"unit":"","obs_status":"","decimal":0},{"indicator":{"id":"SP.URB.TOTL.IN.ZS","value":"Urban population (% of total population)"},"country":{"id":"PH","value":"Philippines"},"countryiso3code":"PHL","date":"2020","value":47.408,"unit":"","obs_status":"","decimal":0},{"indicator":{"id":"SP.URB.TOTL.IN.ZS","value":"Urban population (% of total population)"},"country":{"id":"PH","value":"Philippines"},"countryiso3code":"PHL","date":"2019","value":47.149,"unit":"","obs_status":"","decimal":0},{"indicator":{"id":"SP.URB.TOTL.IN.ZS","value":"Urban population (% of total population)"},"country":{"id":"PH","value":"Philippines"},"countryiso3code":"PHL","date":"2018","value":46.907,"unit":"","obs_status":"","decimal":0},{"indicator":{"id":"SP.URB.TOTL.IN.ZS","value":"Urban population (% of total population)"},"country":{"id":"PH","value":"Philippines"},"countryiso3code":"PHL","date":"2017","value":46.682,"unit":"","obs_status":"","decimal":0},{"indicator":{"id":"SP.URB.TOTL.IN.ZS","value":"Urban population (% of total population)"},"country":{"id":"PH","value":"Philippines"},"countryiso3code":"PHL","date":"2016","value":46.475,"unit":"","obs_status":"","decimal":0},{"indicator":{"id":"SP.URB.TOTL.IN.ZS","value":"Urban population (% of total population)"},"country":{"id":"PH","value":"Philippines"},"countryiso3code":"PHL","date":"2015","value":46.284,"unit":"","obs_status":"","decimal":0},{"indicator":{"id":"SP.URB.TOTL.IN.ZS","value":"Urban population (% of total population)"},"country":{"id":"PH","value":"Philippines"},"countryiso3code":"PHL","date":"2014","value":46.093,"unit":"","obs_status":"","decimal":0},{"indicator":{"id":"SP.URB.TOTL.IN.ZS","value":"Urban population (% of total population)"},"country":{"id":"PH","value":"Philippines"},"countryiso3code":"PHL","date":"2013","value":45.903,"unit":"","obs_status":"","decimal":0},{"indicator":{"id":"SP.URB.TOTL.IN.ZS","value":"Urban population (% of total population)"},"country":{"id":"PH","value":"Philippines"},"countryiso3code":"PHL","date":"2012","value":45.712,"unit":"","obs_status":"","decimal":0},{"indicator":{"id":"SP.URB.TOTL.IN.ZS","value":"Urban population (% of total population)"},"country":{"id":"PH","value":"Philippines"},"countryiso3code":"PHL","date":"2011","value":45.522,"unit":"","obs_status":"","decimal":0},{"indicator":{"id":"SP.URB.TOTL.IN.ZS","value":"Urban population (% of total population)"},"country":{"id":"PH","value":"Philippines"},"countryiso3code":"PHL","date":"2010","value":45.332,"unit":"","obs_status":"","decimal":0},{"indicator":{"id":"SP.URB.TOTL.IN.ZS","value":"Urban population (% of total population)"},"country":{"id":"PH","value":"Philippines"},"countryiso3code":"PHL","date":"2009","value":45.371,"unit":"","obs_status":"","decimal":0},{"indicator":{"id":"SP.URB.TOTL.IN.ZS","value":"Urban population (% of total population)"},"country":{"id":"PH","value":"Philippines"},"countryiso3code":"PHL","date":"2008","value":45.455,"unit":"","obs_status":"","decimal":0},{"indicator":{"id":"SP.URB.TOTL.IN.ZS","value":"Urban population (% of total population)"},"country":{"id":"PH","value":"Philippines"},"countryiso3code":"PHL","date":"2007","value":45.54,"unit":"","obs_status":"","decimal":0},{"indicator":{"id":"SP.URB.TOTL.IN.ZS","value":"Urban population (% of total population)"},"country":{"id":"PH","value":"Philippines"},"countryiso3code":"PHL","date":"2006","value":45.625,"unit":"","obs_status":"","decimal":0},{"indicator":{"id":"SP.URB.TOTL.IN.ZS","value":"Urban population (% of total population)"},"country":{"id":"PH","value":"Philippines"},"countryiso3code":"PHL","date":"2005","value":45.71,"unit":"","obs_status":"","decimal":0},{"indicator":{"id":"SP.URB.TOTL.IN.ZS","value":"Urban population (% of total population)"},"country":{"id":"PH","value":"Philippines"},"countryiso3code":"PHL","date":"2004","value":45.795,"unit":"","obs_status":"","decimal":0},{"indicator":{"id":"SP.URB.TOTL.IN.ZS","value":"Urban population (% of total population)"},"country":{"id":"PH","value":"Philippines"},"countryiso3code":"PHL","date":"2003","value":45.88,"unit":"","obs_status":"","decimal":0},{"indicator":{"id":"SP.URB.TOTL.IN.ZS","value":"Urban population (% of total population)"},"country":{"id":"PH","value":"Philippines"},"countryiso3code":"PHL","date":"2002","value":45.965,"unit":"","obs_status":"","decimal":0},{"indicator":{"id":"SP.URB.TOTL.IN.ZS","value":"Urban population (% of total population)"},"country":{"id":"PH","value":"Philippines"},"countryiso3code":"PHL","date":"2001","value":46.05,"unit":"","obs_status":"","decimal":0},{"indicator":{"id":"SP.URB.TOTL.IN.ZS","value":"Urban population (% of total population)"},"country":{"id":"PH","value":"Philippines"},"countryiso3code":"PHL","date":"2000","value":46.135,"unit":"","obs_status":"","decimal":0},{"indicator":{"id":"SP.URB.TOTL.IN.ZS","value":"Urban population (% of total population)"},"country":{"id":"PH","value":"Philippines"},"countryiso3code":"PHL","date":"1999","value":46.22,"unit":"","obs_status":"","decimal":0},{"indicator":{"id":"SP.URB.TOTL.IN.ZS","value":"Urban population (% of total population)"},"country":{"id":"PH","value":"Philippines"},"countryiso3code":"PHL","date":"1998","value":46.305,"unit":"","obs_status":"","decimal":0},{"indicator":{"id":"SP.URB.TOTL.IN.ZS","value":"Urban population (% of total population)"},"country":{"id":"PH","value":"Philippines"},"countryiso3code":"PHL","date":"1997","value":46.39,"unit":"","obs_status":"","decimal":0},{"indicator":{"id":"SP.URB.TOTL.IN.ZS","value":"Urban population (% of total population)"},"country":{"id":"PH","value":"Philippines"},"countryiso3code":"PHL","date":"1996","value":46.475,"unit":"","obs_status":"","decimal":0},{"indicator":{"id":"SP.URB.TOTL.IN.ZS","value":"Urban population (% of total population)"},"country":{"id":"PH","value":"Philippines"},"countryiso3code":"PHL","date":"1995","value":46.56,"unit":"","obs_status":"","decimal":0},{"indicator":{"id":"SP.URB.TOTL.IN.ZS","value":"Urban population (% of total population)"},"country":{"id":"PH","value":"Philippines"},"countryiso3code":"PHL","date":"1994","value":46.645,"unit":"","obs_status":"","decimal":0},{"indicator":{"id":"SP.URB.TOTL.IN.ZS","value":"Urban population (% of total population)"},"country":{"id":"PH","value":"Philippines"},"countryiso3code":"PHL","date":"1993","value":46.73,"unit":"","obs_status":"","decimal":0},{"indicator":{"id":"SP.URB.TOTL.IN.ZS","value":"Urban population (% of total population)"},"country":{"id":"PH","value":"Philippines"},"countryiso3code":"PHL","date":"1992","value":46.815,"unit":"","obs_status":"","decimal":0},{"indicator":{"id":"SP.URB.TOTL.IN.ZS","value":"Urban population (% of total population)"},"country":{"id":"PH","value":"Philippines"},"countryiso3code":"PHL","date":"1991","value":46.901,"unit":"","obs_status":"","decimal":0},{"indicator":{"id":"SP.URB.TOTL.IN.ZS","value":"Urban population (% of total population)"},"country":{"id":"PH","value":"Philippines"},"countryiso3code":"PHL","date":"1990","value":46.986,"unit":"","obs_status":"","decimal":0},{"indicator":{"id":"SP.URB.TOTL.IN.ZS","value":"Urban population (% of total population)"},"country":{"id":"PH","value":"Philippines"},"countryiso3code":"PHL","date":"1989","value":46.172,"unit":"","obs_status":"","decimal":0},{"indicator":{"id":"SP.URB.TOTL.IN.ZS","value":"Urban population (% of total population)"},"country":{"id":"PH","value":"Philippines"},"countryiso3code":"PHL","date":"1988","value":45.183,"unit":"","obs_status":"","decimal":0},{"indicator":{"id":"SP.URB.TOTL.IN.ZS","value":"Urban population (% of total population)"},"country":{"id":"PH","value":"Philippines"},"countryiso3code":"PHL","date":"1987","value":44.195,"unit":"","obs_status":"","decimal":0},{"indicator":{"id":"SP.URB.TOTL.IN.ZS","value":"Urban population (% of total population)"},"country":{"id":"PH","value":"Philippines"},"countryiso3code":"PHL","date":"1986","value":43.212,"unit":"","obs_status":"","decimal":0},{"indicator":{"id":"SP.URB.TOTL.IN.ZS","value":"Urban population (% of total population)"},"country":{"id":"PH","value":"Philippines"},"countryiso3code":"PHL","date":"1985","value":42.235,"unit":"","obs_status":"","decimal":0},{"indicator":{"id":"SP.URB.TOTL.IN.ZS","value":"Urban population (% of total population)"},"country":{"id":"PH","value":"Philippines"},"countryiso3code":"PHL","date":"1984","value":41.266,"unit":"","obs_status":"","decimal":0},{"indicator":{"id":"SP.URB.TOTL.IN.ZS","value":"Urban population (% of total population)"},"country":{"id":"PH","value":"Philippines"},"countryiso3code":"PHL","date":"1983","value":40.3,"unit":"","obs_status":"","decimal":0},{"indicator":{"id":"SP.URB.TOTL.IN.ZS","value":"Urban population (% of total population)"},"country":{"id":"PH","value":"Philippines"},"countryiso3code":"PHL","date":"1982","value":39.343,"unit":"","obs_status":"","decimal":0},{"indicator":{"id":"SP.URB.TOTL.IN.ZS","value":"Urban population (% of total population)"},"country":{"id":"PH","value":"Philippines"},"countryiso3code":"PHL","date":"1981","value":38.394,"unit":"","obs_status":"","decimal":0},{"indicator":{"id":"SP.URB.TOTL.IN.ZS","value":"Urban population (% of total population)"},"country":{"id":"PH","value":"Philippines"},"countryiso3code":"PHL","date":"1980","value":37.456,"unit":"","obs_status":"","decimal":0},{"indicator":{"id":"SP.URB.TOTL.IN.ZS","value":"Urban population (% of total population)"},"country":{"id":"PH","value":"Philippines"},"countryiso3code":"PHL","date":"1979","value":36.997,"unit":"","obs_status":"","decimal":0},{"indicator":{"id":"SP.URB.TOTL.IN.ZS","value":"Urban population (% of total population)"},"country":{"id":"PH","value":"Philippines"},"countryiso3code":"PHL","date":"1978","value":36.635,"unit":"","obs_status":"","decimal":0},{"indicator":{"id":"SP.URB.TOTL.IN.ZS","value":"Urban population (% of total population)"},"country":{"id":"PH","value":"Philippines"},"countryiso3code":"PHL","date":"1977","value":36.275,"unit":"","obs_status":"","decimal":0},{"indicator":{"id":"SP.URB.TOTL.IN.ZS","value":"Urban population (% of total population)"},"country":{"id":"PH","value":"Philippines"},"countryiso3code":"PHL","date":"1976","value":35.917,"unit":"","obs_status":"","decimal":0},{"indicator":{"id":"SP.URB.TOTL.IN.ZS","value":"Urban population (% of total population)"},"country":{"id":"PH","value":"Philippines"},"countryiso3code":"PHL","date":"1975","value":35.56,"unit":"","obs_status":"","decimal":0},{"indicator":{"id":"SP.URB.TOTL.IN.ZS","value":"Urban population (% of total population)"},"country":{"id":"PH","value":"Philippines"},"countryiso3code":"PHL","date":"1974","value":35.059,"unit":"","obs_status":"","decimal":0}]]